2.833208	0.100032	0.432413	1
2.135750	0.260529	-0.040346	1
2.956654	0.118636	-0.521285	1
2.431242	0.223260	-0.612704	1
2.238673	0.258715	-0.296648	1
2.177173	0.069930	0.008692	1
1.148060	0.151747	-0.484873	1
1.060620	0.308443	-0.691769	1
1.905991	0.062054	-0.131032	1
1.436023	0.198496	-0.126140	1
3.296616	0.185913	0.244974	1
3.140888	0.136683	0.512096	1
1.663819	0.273117	0.143111	1
1.971830	0.239497	-0.142358	1
3.391322	0.181620	-0.466004	1
2.573484	0.203180	-0.100152	1
2.407169	0.112788	-0.253378	1
2.708939	0.191251	-0.506988	1
1.533653	0.157995	-0.056638	1
1.335297	0.263230	-0.056461	1
2.995375	0.123255	0.293730	1
2.685770	0.268253	0.328285	1
1.393900	0.286369	0.171242	1
2.814804	0.189591	0.243790	1
2.371116	0.138820	-0.152277	1
2.619284	0.153459	-0.125329	1
2.539853	0.107321	-0.347725	1
2.885471	0.161958	-0.502606	1
1.967537	0.159145	0.158371	1
1.573573	0.060932	-0.631703	1
2.309530	0.133101	-0.395504	1
2.516229	0.228264	-0.452528	1
1.837460	0.148927	-0.050221	1
2.080502	0.156822	0.078189	1
2.767877	0.287771	-0.130410	1
3.620931	0.148247	-0.376717	1
3.140547	0.177190	-0.340069	1
3.224030	0.102892	-0.437272	1
2.773369	0.142117	-0.107245	1
2.932224	0.316972	-0.090378	1
3.286687	0.175837	-0.254557	1
2.564273	0.169670	0.254723	1
2.223068	0.251910	-0.281633	1
2.879679	0.170564	-0.092964	1
5.336936	0.232261	0.547640	0
4.964877	0.130970	-0.162036	0
4.872036	0.172646	0.066805	0
5.033773	0.210760	0.593236	0
3.772563	0.302794	0.528869	0
5.310935	0.210973	0.259806	0
5.498656	0.237461	0.668439	0
4.356415	0.203303	0.073200	0
4.939586	0.193532	0.451050	0
5.101469	0.199356	0.457130	0
4.852324	0.095623	0.548923	0
4.985614	0.160136	0.037639	0
4.827812	0.149227	0.616002	0
4.829493	0.123768	0.108802	0
5.053818	0.136390	-0.017460	0
4.756464	0.176994	0.557681	0
4.852186	0.114835	0.578026	0
4.682680	0.150067	0.721711	0
4.992560	0.176392	0.142873	0
4.979516	0.211773	0.477393	0
4.559807	0.161755	0.566934	0
4.633474	0.127608	0.145290	0
4.357052	0.135030	0.446107	0
4.881491	0.115007	0.000611	0
4.649550	0.183529	-0.106194	0
4.746657	0.104608	0.683907	0
4.371314	0.102499	0.314245	0
4.396093	0.143788	0.711181	0
3.840803	0.272431	0.345404	0
4.091042	0.226403	0.035567	0
4.258105	0.157809	-0.296166	0
4.384927	0.108127	0.603571	0
4.275643	0.199791	0.017564	0
4.435453	0.168742	0.752324	0
4.489656	0.062251	0.346571	0
4.857901	0.186149	0.211960	0
3.731378	0.170896	0.272385	0
4.505409	0.126826	0.330421	0
4.018368	0.099517	0.612398	0
4.101024	0.127836	0.687465	0
4.534535	0.127084	0.547629	0
4.360055	0.261854	-0.349698	0
4.310980	0.248324	0.618040	0
4.098511	0.136219	0.703068	0
4.021459	0.191160	0.562229	0
4.195884	0.165499	-0.132748	0
4.297242	0.258406	-0.241029	0
4.665771	0.156019	0.642257	0
4.506495	0.151738	0.810049	0
3.763766	0.155722	-0.177211	0
3.027763	0.379598	0.415735	0
4.186284	0.168303	0.524884	0
3.305435	0.357122	0.370815	0
4.067781	0.258212	0.443317	0
2.944747	0.436959	0.715278	0
4.664933	0.272252	0.425621	0
3.866460	0.232892	0.249515	0
4.290530	0.159474	0.759699	0
4.070515	0.215617	0.384650	0
4.239661	0.252657	0.604087	0
3.319815	0.233291	0.096462	0
3.902344	0.239627	0.101701	0
3.860280	0.066243	0.310233	0
3.969316	0.151227	0.591028	0
4.235268	0.187482	0.745143	0
4.261056	0.128526	0.669546	0
3.765400	0.169389	-0.451317	0
4.083445	0.168083	0.726935	0
4.489841	0.090167	0.627835	0
3.896002	0.235681	0.593898	0
4.462415	0.199010	-0.377592	0
3.989231	0.186650	0.699434	0
3.913719	0.240740	0.623695	0
3.938529	0.157276	0.367272	0
4.114730	0.188768	0.435260	0
4.016131	0.202713	0.312422	0
4.134267	0.180329	-0.234782	0
4.494069	0.168264	0.552722	0
4.100434	0.225967	0.464923	0
4.006383	0.127506	0.278319	0
4.000307	0.188728	0.807563	0
4.139437	0.296012	0.716529	0
3.666040	0.162139	-0.464527	0
2.841277	0.393270	0.473969	0
4.144915	0.172415	0.527744	0
3.717624	0.235309	0.344261	0
4.056686	0.167854	-0.141755	0
3.916928	0.150120	0.411777	0
4.080715	0.184864	-0.254324	0
3.816900	0.090107	-0.065108	0
4.120539	0.184051	0.455405	0
3.755756	0.085666	0.462341	0
3.917295	0.181785	0.742175	0
4.033591	0.149878	-0.240014	0
3.241177	0.227821	0.258220	0
4.008385	0.175446	0.646930	0
3.766778	0.137331	0.473251	0
4.389496	0.195253	0.188481	0
4.281576	0.201943	0.433297	0
4.076099	0.128221	0.679525	0
3.947058	0.201951	0.370176	0
3.852405	0.172932	0.590979	0
4.105136	0.142251	0.114066	0
4.110844	0.261614	0.725976	0
2.954411	0.466329	0.575936	0
4.472531	0.213344	0.290293	0
4.026071	0.241756	0.165834	0
3.772494	0.209114	0.413435	0
4.434038	0.209797	0.265740	0
3.561134	0.261921	0.289839	0
4.271714	0.177389	0.055273	0
2.872134	0.454496	0.475217	0
3.658332	0.225631	0.603561	0
3.665676	0.255364	-0.218022	0
3.561229	0.258265	0.634347	0
3.528192	0.149975	0.466946	0
3.374125	0.187918	-0.119598	0
2.802590	0.309079	0.647953	0
3.959365	0.142968	0.312099	0
3.767930	0.282875	-0.036219	0
2.791186	0.369129	0.690645	0
3.262439	0.288619	0.149530	0
4.119373	0.129774	0.353850	0
4.662952	0.113722	-0.238340	0
3.790715	0.175456	0.429769	0
3.029826	0.474124	0.599407	0
3.619158	0.228309	0.484849	0
3.899560	0.264980	0.515132	0
3.703869	0.128950	-0.026552	0
3.849882	0.164329	0.322837	0
4.168044	0.187029	0.189861	0
3.545417	0.256850	0.375665	0
4.207417	0.098303	0.279455	0
3.782142	0.115903	0.728306	0
3.608476	0.209071	-0.039988	0
3.860394	0.119669	0.505592	0
3.177747	0.299551	-0.088936	0
3.980439	0.158407	0.500451	0
3.251482	0.219590	0.329741	0
3.714220	0.278877	0.870817	0
3.582871	0.215451	0.431528	0
3.579926	0.159199	0.001077	0
4.011553	0.184747	-0.232254	0
3.049420	0.269292	0.307011	0
2.976535	0.185843	-0.268190	0
2.693198	0.399615	0.588394	0
3.630691	0.297468	0.659929	0
3.879702	0.201184	0.733116	0
3.518336	0.248753	-0.353805	0
3.966010	0.154111	0.076549	0
3.303841	0.224102	0.154428	0
3.086220	0.094042	-0.500022	0
3.815053	0.187387	0.287811	0
3.369739	0.140637	0.566355	0
3.896265	0.278572	0.506012	0
3.019534	0.189233	-0.295310	0
3.438530	0.272953	0.638313	0
3.988930	0.274973	0.436232	0
3.940888	0.188387	0.550576	0
3.887539	0.257724	-0.090417	0
2.830071	0.343089	0.347509	0
2.677733	0.352219	0.615717	0
3.185174	0.182381	0.426963	0
4.176916	0.172456	0.433107	0
2.604007	0.344221	0.549895	0
3.066974	0.228328	-0.406004	0
2.751317	0.386970	-0.164915	0
3.012203	0.185407	0.267491	0
3.112215	0.227861	0.513830	0
3.569027	0.321418	0.379076	0
3.976649	0.157316	0.255821	0
3.151571	0.260853	-0.117400	0
3.520724	0.112705	0.093370	0
3.833550	0.123338	0.691813	0
2.960165	0.283195	0.362989	0
3.718129	0.132446	0.249402	0
3.618189	0.125934	-0.257043	0
3.457720	0.210589	0.463310	0
3.615797	0.175172	-0.042655	0
2.249449	0.525198	0.612543	0
3.749781	0.257561	0.285419	0
2.503047	0.477804	0.553632	0
4.009642	0.087073	0.463784	0
4.077957	0.163946	0.227233	0
3.945529	0.119654	0.013052	0
3.126563	0.101421	0.108244	0
4.106852	0.182860	0.539798	0
3.116677	0.202311	-0.372061	0
3.597415	0.175857	0.281883	0
3.726016	0.168450	0.548767	0
2.696617	0.324707	0.588744	0
3.084449	0.278576	0.417372	0
3.733516	0.239927	0.695057	0
3.419394	0.198610	-0.265645	0
3.533165	0.185283	0.567802	0
3.591252	0.097700	0.138493	0
3.305765	0.122249	-0.097848	0
3.527077	0.143443	0.043130	0
2.513403	0.474172	0.484863	0
3.992580	0.089305	0.298663	0
2.794063	0.374095	0.532933	0
3.027282	0.155117	-0.081538	0
3.745270	0.186424	0.411526	0
3.061928	0.200425	0.040892	0
4.016190	0.152881	0.599490	0
3.230492	0.100470	0.320295	0
3.527894	0.216665	0.326396	0
3.644938	0.158344	0.030283	0
3.554594	0.228535	-0.240889	0
3.859095	0.147691	-0.078441	0
3.059846	0.243797	-0.084199	0
3.683396	0.206393	0.390847	0
3.550200	0.192212	-0.315894	0
3.663852	0.263791	0.073737	0
3.345826	0.110537	-0.131978	0
3.467909	0.141755	-0.009019	0
3.385207	0.224100	0.457636	0
3.505815	0.237046	0.373871	0
3.411008	0.225183	-0.006034	0
3.630905	0.223849	0.101387	0
3.149514	0.123505	0.278251	0
3.597867	0.124162	0.593146	0
3.977943	0.170124	0.493085	0
3.568500	0.252256	0.382300	0
3.651135	0.163876	0.506142	0
3.116434	0.104134	0.656302	0
3.968560	0.193098	0.036332	0
3.651016	0.171048	0.338204	0
3.369945	0.151018	0.078344	0
3.324408	0.163690	0.098342	0
3.575817	0.240166	0.113264	0
2.772071	0.175154	0.082040	0
3.545048	0.137657	-0.083644	0
3.483502	0.208650	0.669086	0
3.669688	0.188730	-0.256457	0
3.655411	0.182787	-0.036133	0
3.311373	0.166346	0.605097	0
2.959952	0.341109	0.528591	0
3.537668	0.209953	0.667194	0
3.476521	0.272670	-0.016271	0
4.034944	0.137115	0.296875	0
2.957730	0.301354	-0.291462	0
3.479039	0.209877	0.313959	0
3.923373	0.119540	0.240608	0
2.209064	0.485533	0.506199	0
3.417049	0.214471	-0.567696	0
3.392014	0.330592	0.158612	0
3.470095	0.150712	-0.057338	0
3.402606	0.225558	-0.070681	0
2.729592	0.243352	0.220970	0
3.426376	0.180010	0.428885	0
2.007192	0.404050	0.260553	0
2.753223	0.232263	-0.182564	0
2.585745	0.346256	0.025302	0
2.794024	0.193635	-0.230889	0
3.537397	0.216797	0.395645	0
3.677037	0.213429	-0.646540	0
3.719220	0.166720	0.671012	0
3.954211	0.111076	0.176339	0
3.133850	0.058217	-0.058865	0
3.361364	0.309329	0.409972	0
3.106932	0.276447	0.348208	0
2.370407	0.345995	-0.022042	0
2.973233	0.261447	0.048268	0
2.920531	0.118863	-0.462290	0
3.559400	0.200414	0.056918	0
3.307187	0.214604	0.207956	0
2.978360	0.246002	-0.208932	0
3.164125	0.236071	0.540846	0
3.117124	0.207835	-0.090333	0
3.541934	0.233461	-0.219043	0
3.528192	0.160876	0.506048	0
3.238782	0.131367	0.442378	0
3.082392	0.188083	-0.442154	0
2.291147	0.351901	-0.206664	0
2.994188	0.215705	0.211298	0
3.236309	0.115559	-0.397155	0
3.456449	0.215966	-0.390375	0
2.465360	0.429901	0.280054	0
3.220073	0.213137	0.605317	0
3.515825	0.213865	0.427085	0
3.382705	0.172121	0.055539	0
3.470479	0.158831	0.382091	0
3.036274	0.224288	-0.472045	0
3.668527	0.234274	0.298173	0
3.232340	0.177704	0.356744	0
3.385758	0.236660	0.608761	0
3.678093	0.158827	0.545577	0
3.290068	0.246756	0.119968	0
2.614612	0.287834	0.445381	0
2.696803	0.297102	-0.007153	0
2.753654	0.266122	0.193716	0
2.828040	0.189226	0.739515	0
3.335482	0.236203	-0.313190	0
3.350507	0.222763	-0.154203	0
3.442213	0.212605	0.653300	0
3.549400	0.160696	0.393097	0
3.875133	0.101176	-0.115772	0
3.652832	0.212903	0.084747	0
3.609139	0.155127	-0.170583	0
2.876645	0.259794	-0.092906	0
3.838245	0.132135	0.242569	0
3.593369	0.163703	-0.438522	0
3.081573	0.218926	-0.092151	0
3.476186	0.234712	0.221337	0
3.166909	0.222408	0.731876	0
2.318975	0.310899	0.182066	0
3.846659	0.128439	0.034182	0
3.144449	0.208517	-0.157072	0
2.868566	0.200358	0.375731	0
3.552145	0.305627	-0.236650	0
3.187446	0.246485	0.027403	0
3.552684	0.103808	0.699794	0
3.291002	0.164575	0.272089	0
3.039462	0.179051	-0.439864	0
3.300411	0.087072	0.691992	0
2.747470	0.167969	-0.471695	0
3.336896	0.198959	0.235408	0
3.483048	0.213122	-0.091595	0
3.412003	0.210469	-0.226450	0
2.965914	0.245196	-0.393542	0
3.324726	0.293286	-0.556089	0
2.980586	0.124939	-0.023625	0
2.677326	0.316525	0.121505	0
2.096696	0.453813	0.148086	0
2.732818	0.330379	0.172212	0
2.930674	0.375530	-0.142476	0
3.275986	0.209529	-0.074064	0
3.761120	0.201072	0.219032	0
3.600304	0.174062	0.485519	0
2.654168	0.304230	-0.011143	0
3.145882	0.152521	0.102401	0
2.820122	0.231715	0.152120	0
2.936910	0.236335	-0.178074	0
2.986438	0.167322	0.529374	0
3.094089	0.234406	0.572199	0
3.247286	0.093270	0.079889	0
2.812021	0.242865	-0.028963	0
3.034506	0.247423	-0.354038	0
3.453007	0.162933	0.441842	0
2.837732	0.299913	-0.146979	0
3.507181	0.225295	0.562394	0
3.152368	0.166207	0.032759	0
3.471585	0.191812	-0.458424	0
2.430076	0.493418	0.337716	0
2.814613	0.327283	-0.213668	0
2.895162	0.134973	0.561376	0
2.988990	0.127262	-0.374131	0
3.088246	0.282304	0.133941	0
3.153858	0.227702	0.115932	0
2.999863	0.149711	-0.050082	0
3.220094	0.133199	0.764246	0
2.056258	0.494091	0.426461	0
3.268252	0.110266	0.217508	0
2.714416	0.254775	-0.212928	0
3.276428	0.157025	0.289664	0
2.079865	0.370624	0.630787	0
2.322190	0.397550	-0.285843	0
2.604254	0.330809	-0.363841	0
3.198743	0.214466	-0.195522	0
2.975277	0.238798	-0.608420	0
3.007165	0.311865	0.094034	0
3.245567	0.210626	0.224175	0
2.772425	0.246188	0.055407	0
3.144366	0.268678	-0.503074	0
3.425192	0.135156	0.346161	0
2.855309	0.269342	0.006488	0
2.361054	0.408781	0.312819	0
2.755933	0.153816	-0.365065	0
2.892422	0.168613	0.343910	0
2.892011	0.246412	-0.070282	0
3.058484	0.227042	0.400191	0
3.068990	0.129667	-0.126162	0
3.320699	0.145504	0.406602	0
3.432472	0.233204	-0.044484	0
2.543098	0.266974	-0.010511	0
3.283232	0.148940	0.602413	0
3.233501	0.186959	0.087609	0
2.648635	0.449971	0.049415	0
2.926766	0.096948	0.499885	0
2.972261	0.209023	-0.304031	0
2.808708	0.345750	-0.189280	0
2.606411	0.344015	-0.078783	0
2.716955	0.126817	-0.060301	0
3.432475	0.195202	0.190108	0
3.367107	0.197718	0.658618	0
3.041994	0.197120	0.394973	0
2.273269	0.350471	0.111495	0
2.847770	0.143223	0.275146	0
2.616775	0.380160	-0.226396	0
2.709655	0.137179	-0.075887	0
2.866204	0.123853	-0.386272	0
3.014951	0.191844	0.176588	0
3.828509	0.134949	0.604890	0
3.134865	0.136377	0.600820	0
3.264342	0.195805	-0.112555	0
3.613244	0.187624	0.433635	0
2.668038	0.178511	-0.395108	0
3.371287	0.141177	0.093480	0
3.156602	0.128419	0.389148	0
2.735129	0.181976	0.001407	0
3.016259	0.249249	0.663199	0
2.276952	0.261223	0.418879	0
3.093269	0.218997	0.341150	0
3.043692	0.213451	0.040106	0
3.285137	0.195282	0.555104	0
3.215546	0.210895	-0.039837	0
3.011650	0.242864	0.085773	0
3.346071	0.188056	0.439365	0
3.410444	0.170525	0.518387	0
2.865208	0.269884	0.236562	0
2.498869	0.260253	0.160790	0
3.405966	0.169572	0.627367	0
3.112146	0.127561	-0.039250	0
2.692694	0.221846	0.173870	0
2.468433	0.297142	-0.222091	0
2.930526	0.131971	-0.079941	0
3.034240	0.206013	-0.313439	0
1.957641	0.471155	0.563547	0
2.560667	0.213249	0.103438	0
2.841041	0.276452	-0.222056	0
2.820399	0.263033	0.597593	0
2.559814	0.292294	0.415644	0
2.569599	0.231064	-0.110519	0
3.199535	0.159777	0.505488	0
2.615909	0.219117	0.317848	0
2.794626	0.329797	0.542395	0
3.283669	0.144147	0.626961	0
2.821281	0.071255	0.408190	0
3.368257	0.165613	0.186594	0
2.824243	0.216824	-0.237640	0
3.269477	0.188540	-0.107013	0
3.468241	0.212002	-0.320756	0
2.778470	0.265325	0.148459	0
2.782116	0.276472	0.670354	0
3.294250	0.155327	-0.055242	0
3.162288	0.296316	-0.109420	0
2.931946	0.193465	0.112869	0
2.858480	0.295327	-0.318375	0
3.176098	0.243415	-0.168829	0
2.983364	0.122443	-0.296346	0
2.955975	0.178172	0.456366	0
2.891653	0.203937	0.531132	0
3.186740	0.250247	0.710093	0
2.827709	0.292095	-0.161873	0
3.152845	0.190592	0.501459	0
3.241303	0.120898	-0.106560	0
2.475949	0.312230	-0.264798	0
3.193158	0.129505	0.078933	0
3.442838	0.164290	-0.278609	0
3.258340	0.230371	0.621659	0
2.966238	0.183618	0.690456	0
3.232997	0.292618	0.276227	0
3.399832	0.199447	0.106771	0
3.390349	0.194810	-0.367112	0
2.654970	0.258082	0.009274	0
2.997656	0.217849	0.325270	0
2.805510	0.353032	0.060533	0
3.345943	0.092521	-0.341800	0
2.891796	0.157223	0.079491	0
2.979336	0.127358	-0.628013	0
2.995533	0.236500	-0.638957	0
3.212204	0.195782	-0.273602	0
2.717951	0.179751	0.326432	0
2.673677	0.225856	0.208015	0
2.759077	0.377052	-0.249247	0
3.078142	0.197168	0.082879	0
2.567036	0.163996	0.263099	0
2.966482	0.123410	-0.019695	0
2.863341	0.202384	0.501330	0
3.358962	0.263228	0.074597	0
3.158282	0.102121	-0.063259	0
3.183693	0.304114	0.100062	0
3.087763	0.177280	-0.106779	0
2.762090	0.324276	0.086398	0
2.114052	0.196966	0.246114	0
2.778633	0.226851	0.146196	0
3.455068	0.174632	-0.213625	0
2.876964	0.355612	-0.347833	0
2.411838	0.327225	0.370209	0
3.092243	0.177634	0.561406	0
3.360936	0.159665	-0.308348	0
2.860409	0.326288	0.166366	0
3.102481	0.189733	0.631843	0
2.442108	0.133894	0.286155	0
3.632923	0.123030	0.271356	0
2.707631	0.147254	0.073859	0
2.035615	0.308260	0.490189	0
2.811682	0.215834	-0.124551	0
2.576336	0.233794	0.012629	0
2.475671	0.354528	0.467784	0
2.619658	0.174884	0.146277	0
3.116228	0.187379	0.332086	0
2.767353	0.144847	-0.189392	0
2.951497	0.197447	0.436516	0
2.395503	0.246604	0.573834	0
3.070065	0.197569	0.012844	0
2.976759	0.223966	0.279737	0
3.019385	0.196075	-0.417100	0
2.659568	0.329471	0.421302	0
2.917663	0.135742	-0.567036	0
3.037715	0.173654	0.352631	0
2.761581	0.240719	0.006995	0
2.976663	0.140043	-0.480104	0
2.630176	0.191674	0.460639	0
3.131373	0.210722	0.467949	0
2.375041	0.356524	-0.060262	0
2.950359	0.218440	0.697491	0
1.908861	0.390293	0.257012	0
2.567781	0.069711	-0.417870	0
2.451435	0.169522	0.154898	0
2.563628	0.306398	0.303078	0
2.865769	0.158612	-0.322324	0
2.728729	0.135684	-0.017615	0
2.660346	0.123764	-0.242702	0
3.222181	0.148924	0.273411	0
2.562199	0.171413	0.194999	0
2.948030	0.128984	0.261642	0
2.285099	0.202594	0.191764	0
3.475159	0.150450	0.220422	0
2.455380	0.163004	0.036290	0
3.056854	0.300401	0.540714	0
2.310148	0.203921	-0.170574	0
3.030946	0.170213	0.553587	0
2.513118	0.076829	-0.275986	0
2.646230	0.136848	0.115272	0
2.674929	0.376420	0.226679	0
2.698246	0.255635	-0.190795	0
3.041069	0.148126	-0.029687	0
2.823540	0.289809	-0.739542	0
3.395859	0.128380	-0.350377	0
2.647232	0.212085	0.121488	0
2.732179	0.145750	0.504446	0
2.211632	0.287063	0.430601	0
3.281120	0.172636	0.095253	0
2.457697	0.235939	-0.229187	0
2.517522	0.268284	-0.234778	0
2.837753	0.151508	-0.103575	0
2.538235	0.127475	0.438862	0
2.687060	0.154179	-0.072652	0
2.709961	0.318115	0.225432	0
2.631550	0.257301	-0.247217	0
2.939414	0.073623	0.155678	0
2.677745	0.100658	0.083107	0
2.335408	0.228656	-0.195196	0
2.580455	0.096021	-0.278817	0
2.596412	0.098227	0.366569	0
2.418937	0.161136	-0.013246	0
3.194647	0.219434	0.159321	0
2.411045	0.253493	0.191579	0
2.195678	0.200911	0.223689	0
2.594708	0.232159	-0.305307	0
3.430295	0.159167	0.359683	0
2.978395	0.198315	0.087732	0
2.539788	0.156498	-0.025179	0
3.243261	0.191588	0.103774	0
1.823085	0.379947	-0.230730	0
2.589347	0.237459	-0.289137	0
2.370434	0.301993	0.022424	0
1.883174	0.380588	0.566442	0
2.538608	0.132033	-0.653419	0
3.170443	0.259085	-0.020161	0
2.082517	0.292344	0.292910	0
2.973017	0.259649	0.242090	0
2.841970	0.174374	-0.388333	0
2.240704	0.220616	-0.075891	0
2.900577	0.242781	0.175334	0
2.776622	0.220132	0.068143	0
2.961110	0.150532	0.019177	0
3.120225	0.141000	0.521636	0
2.871642	0.225680	0.304940	0
3.005565	0.215376	0.619342	0
2.421205	0.096518	0.556754	0
2.459164	0.271516	-0.091216	0
2.552430	0.248091	-0.438929	0
2.594538	0.213167	0.262774	0
2.960178	0.106218	-0.018616	0
3.204130	0.141995	0.570495	0
2.851093	0.217533	0.495087	0
3.225619	0.123776	-0.165923	0
2.984682	0.192974	-0.324431	0
2.585984	0.273734	-0.351129	0
2.526676	0.120112	0.120859	0
3.027392	0.226365	0.011700	0
2.741339	0.060828	-0.331911	0
1.830682	0.378908	-0.029517	0
2.395361	0.220441	-0.393393	0
1.728292	0.403478	-0.477792	0
2.813528	0.123014	-0.027432	0
2.383724	0.251630	0.107432	0
2.838028	0.175248	0.200127	0
1.847244	0.192962	0.593707	0
2.833016	0.156361	-0.030251	0
2.727088	0.279581	0.419256	0
2.503407	0.167128	-0.047527	0
2.773452	0.149079	-0.343175	0
2.741126	0.145080	0.349172	0
2.939960	0.063259	-0.171827	0
2.999183	0.165413	-0.033543	0
2.641253	0.270989	0.156876	0
2.544030	0.272242	-0.534175	0
2.674826	0.278838	0.096267	0
2.679381	0.160223	-0.358520	0
2.507388	0.136356	0.310492	0
2.628161	0.293288	-0.107369	0
1.789974	0.531444	0.507851	0
2.795598	0.218692	-0.117379	0
2.307479	0.214609	-0.254377	0
2.494065	0.134231	0.354171	0
3.105145	0.184800	0.215008	0
3.338304	0.132296	0.443521	0
2.025816	0.328873	-0.274987	0
2.514148	0.274832	-0.067722	0
2.375414	0.320629	-0.149761	0
2.061286	0.420947	0.086578	0
2.808091	0.155197	0.136480	0
2.829742	0.235492	-0.371779	0
2.891066	0.160164	0.256695	0
1.695566	0.284602	-0.254180	0
2.891006	0.095079	-0.120356	0
2.787814	0.183144	-0.242811	0
1.946099	0.071821	0.125011	0
2.551521	0.155974	0.315249	0
2.087336	0.246046	0.290905	0
2.009257	0.169510	-0.127620	0
1.806452	0.268080	0.483913	0
2.391464	0.223479	-0.077777	0
2.466212	0.283407	-0.186628	0
2.238203	0.225990	0.146603	0
2.829607	0.148282	0.443212	0
2.940428	0.118320	0.461593	0
2.078141	0.272027	0.247756	0
2.865848	0.182382	-0.450030	0
2.835482	0.182692	0.299274	0
2.498733	0.212023	-0.584418	0
2.514770	0.208338	-0.613381	0
2.669415	0.240545	-0.312902	0
2.076725	0.220537	-0.149801	0
2.705137	0.320544	0.407260	0
2.814443	0.095666	0.006551	0
2.444666	0.165348	0.179328	0
2.690555	0.145740	0.583749	0
2.298306	0.312187	0.291393	0
2.345213	0.220554	0.162581	0
2.758016	0.135835	0.389356	0
2.981553	0.268894	0.469123	0
2.502848	0.143182	-0.093029	0
2.695800	0.203458	-0.490182	0
2.169560	0.255473	0.318028	0
2.390908	0.208960	-0.248247	0
1.746540	0.446217	0.356105	0
2.526699	0.227925	-0.404416	0
2.093032	0.252212	0.222348	0
2.683646	0.180984	0.118146	0
2.686168	0.154454	0.529651	0
2.076608	0.227322	0.569370	0
2.898975	0.147865	0.525951	0
2.743621	0.198492	0.233485	0
1.931805	0.195673	0.350478	0
2.377491	0.269164	0.694453	0
2.083598	0.217333	-0.134520	0
2.577925	0.173585	-0.190278	0
2.528813	0.129779	-0.186804	0
2.633657	0.395773	0.668911	0
2.614621	0.206046	-0.186338	0
2.656822	0.295871	-0.436129	0
2.747923	0.209240	0.479856	0
2.512746	0.165990	-0.012945	0
2.351663	0.188905	-0.224672	0
1.604019	0.481382	0.102183	0
2.539466	0.167196	-0.437582	0
2.811087	0.196031	-0.193136	0
2.506227	0.192618	0.197970	0
2.361076	0.257178	0.337289	0
1.832676	0.318579	0.215505	0
2.005455	0.130073	-0.289810	0
1.804583	0.307266	0.339208	0
2.993689	0.148163	0.097151	0
2.627314	0.255263	-0.458751	0
2.187654	0.409154	-0.146519	0
2.279196	0.246552	-0.282361	0
2.605695	0.064389	0.444197	0
2.704082	0.133768	-0.028726	0
2.258882	0.377171	0.060852	0
2.332343	0.236581	0.057318	0
2.069111	0.390500	-0.218498	0
2.778427	0.144006	-0.240303	0
2.668409	0.167628	-0.457213	0
1.975831	0.425294	-0.232689	0
2.399884	0.211065	-0.280206	0
2.383409	0.192134	0.708227	0
2.776145	0.097410	-0.121375	0
2.671898	0.127112	0.080463	0
2.669045	0.164527	-0.135117	0
2.401885	0.179474	-0.419498	0
2.318309	0.220745	0.305223	0
2.391997	0.327543	0.094701	0
3.265316	0.087602	0.003212	0
2.426803	0.240935	0.143405	0
2.459235	0.231601	-0.471753	0
2.900893	0.165833	-0.023238	0
2.503925	0.291772	-0.046750	0
2.061721	0.436955	0.445406	0
2.354158	0.233294	-0.009113	0
2.722949	0.101678	0.313943	0
1.738371	0.347988	-0.079708	0
3.051640	0.157674	0.061344	0
2.391938	0.249800	-0.277970	0
2.194299	0.119275	-0.034043	0
1.693311	0.404944	-0.412448	0
2.344013	0.251366	0.614624	0
2.416336	0.193688	-0.051928	0
2.311528	0.224304	0.066731	0
1.564239	0.275372	0.184848	0
1.820321	0.250984	-0.059803	0
2.401343	0.140171	-0.336510	0
2.459877	0.106951	-0.473469	0
2.460454	0.192588	-0.021447	0
2.126091	0.213152	-0.335914	0
2.369203	0.157740	-0.327777	0
2.611649	0.167825	0.169858	0
2.098946	0.258877	0.584788	0
2.351906	0.194639	-0.278842	0
2.096176	0.277293	0.076946	0
2.011685	0.315399	-0.127337	0
2.150568	0.174692	0.004694	0
2.631226	0.287998	0.670944	0
2.171407	0.202429	-0.025595	0
2.058982	0.262413	-0.208996	0
1.676804	0.358275	0.202914	0
2.437096	0.102228	-0.072219	0
1.887819	0.355880	0.155812	0
2.577655	0.131934	-0.361533	0
1.272483	0.344286	0.081259	0
2.333502	0.251920	0.353378	0
1.657276	0.370344	-0.051726	0
1.898728	0.169626	-0.136093	0
2.565384	0.233631	0.412894	0
2.328596	0.172403	-0.572681	0
2.118386	0.196616	-0.696098	0
2.343181	0.200843	-0.462240	0
1.797832	0.150426	-0.322784	0
2.652434	0.199471	0.040642	0
2.435667	0.210082	-0.305368	0
1.917952	0.423142	0.058247	0
2.003584	0.181224	0.459046	0
1.824626	0.299263	0.465164	0
2.515992	0.163904	0.239845	0
1.888675	0.197882	-0.673742	0
1.940734	0.358120	-0.201263	0
2.450990	0.206958	-0.304062	0
1.237853	0.361736	0.590836	0
2.132776	0.182542	0.699388	0
1.732037	0.292126	0.593826	0
1.923278	0.340556	0.397155	0
2.602623	0.175586	0.357628	0
2.068659	0.274878	-0.281078	0
2.516450	0.152417	0.291347	0
1.775258	0.240769	0.317498	0
1.974819	0.452936	0.239860	0
2.129289	0.351941	0.297780	0
1.827870	0.127497	0.079672	0
1.897704	0.248698	0.112217	0
2.031325	0.146890	-0.343603	0
1.895106	0.165135	-0.041618	0
1.779115	0.571856	-0.302935	0
2.541806	0.243740	0.552559	0
2.493638	0.186368	-0.233169	0
2.230590	0.177276	-0.014744	0
2.370838	0.157773	-0.295279	0
2.017745	0.397018	-0.203063	0
2.371400	0.167009	-0.116397	0
2.041840	0.345227	-0.181752	0
1.237651	0.076644	0.203948	0
2.397926	0.261989	-0.070880	0
1.769938	0.375789	-0.220356	0
2.874086	0.104647	-0.164691	0
2.629765	0.210251	-0.270216	0
1.912335	0.184779	-0.127342	0
2.181044	0.206100	-0.029569	0
1.383543	0.452464	-0.112792	0
1.979389	0.284096	-0.221746	0
2.385114	0.193905	0.161468	0
2.402970	0.296558	-0.326506	0
1.639486	0.150224	0.420125	0
1.867517	0.279058	-0.186714	0
1.668783	0.327803	0.453988	0
1.331596	0.497089	-0.180621	0
2.145775	0.227182	0.107260	0
1.730392	0.409444	-0.070576	0
1.448526	0.314540	-0.398579	0
1.743915	0.383854	-0.208855	0
2.326036	0.161652	0.072259	0
1.784103	0.218423	0.328912	0
1.686339	0.149029	-0.423997	0
2.353171	0.151599	0.111170	0
1.720873	0.295119	0.246453	0
1.677055	0.373345	0.143919	0
1.816159	0.323518	0.104550	0
1.891973	0.355287	0.014314	0
2.063825	0.201270	-0.094691	0
2.227349	0.131770	-0.680757	0
1.850632	0.347396	-0.214156	0
1.525430	0.370083	-0.238962	0
1.921682	0.346651	0.352915	0
1.673523	0.179385	0.567361	0
1.806138	0.426962	0.025586	0
1.561630	0.191499	0.238609	0
2.125584	0.370902	0.499001	0
1.772349	0.267574	0.291723	0
1.971995	0.264073	-0.473373	0
2.195237	0.263596	0.038561	0
2.696793	0.067201	0.025057	0
1.816089	0.246638	0.055512	0
1.924256	0.326115	-0.115117	0
2.403932	0.179018	0.172886	0
2.336697	0.245350	-0.366355	0
2.032092	0.238379	-0.296416	0
2.493297	0.105546	-0.305964	0
1.981668	0.128386	-0.622371	0
1.826783	0.233976	-0.225854	0
1.894994	0.209146	-0.063974	0
2.230180	0.224119	-0.253437	0
2.250483	0.233099	-0.067136	0
2.314177	0.163198	0.003875	0
1.624614	0.325472	-0.261690	0
2.046121	0.270896	0.096530	0
1.541791	0.404160	0.256299	0
2.052666	0.218148	0.644134	0
2.398681	0.298899	-0.484928	0
0.881992	0.505431	0.087352	0
1.863051	0.318519	0.442481	0
2.080004	0.185167	-0.091377	0
1.127949	0.335355	0.052223	0
1.158097	0.422923	0.109167	0
1.742809	0.452255	-0.313870	0
1.961402	0.307078	-0.421740	0
1.786995	0.346490	0.261976	0
1.545576	0.215735	-0.189624	0
2.373400	0.152431	-0.125051	0
1.539606	0.348406	-0.131086	0
1.484914	0.316127	0.225937	0
2.397121	0.172254	0.180628	0
1.793265	0.114393	0.042506	0
2.224249	0.123657	-0.354680	0
1.516049	0.306190	0.488550	0
1.690625	0.151539	0.036833	0
1.865088	0.366709	-0.330538	0
2.067517	0.240364	-0.016612	0
1.596015	0.546976	0.034095	0
2.128712	0.203132	-0.748306	0
1.326873	0.373721	0.081445	0
1.590526	0.549253	-0.078251	0
1.581019	0.368047	0.081926	0
1.237174	0.418517	0.189173	0
1.348756	0.352641	-0.089047	0
1.693767	0.119960	-0.223930	0
1.725541	0.257869	0.124280	0
2.226919	0.124416	-0.321655	0
2.546532	0.126427	0.124826	0
1.510401	0.389722	-0.083316	0
2.233397	0.201147	-0.495188	0
1.228143	0.334995	0.289198	0
1.930032	0.136088	-0.569226	0
1.449410	0.360518	0.029729	0
1.740062	0.219840	-0.211258	0
1.211451	0.190652	0.166241	0
1.587236	0.254183	0.131392	0
1.506596	0.282904	0.120768	0
1.770521	0.332151	0.024484	0
1.957751	0.181028	0.124214	0
1.730312	0.285643	-0.279534	0
1.993977	0.194727	-0.260334	0
1.797809	0.560165	-0.018706	0
2.323676	0.177809	0.463339	0
1.785839	0.371918	0.134820	0
1.773380	0.178001	-0.521447	0
2.084575	0.230167	0.096499	0
1.000372	0.495513	0.035497	0
1.642780	0.236198	0.295913	0
1.548164	0.192540	0.043746	0
1.782243	0.351251	-0.247556	0
1.797609	0.386391	0.079708	0
1.735654	0.337750	-0.089510	0
1.616478	0.425730	0.104998	0
1.877318	0.208356	-0.285452	0
2.092555	0.292156	-0.130378	0
1.547121	0.292379	-0.007666	0
1.646119	0.327070	0.080590	0
1.489105	0.257015	-0.171025	0
1.409607	0.153096	0.352294	0
1.670931	0.241796	0.290092	0
1.867073	0.110822	0.105897	0
1.904841	0.235609	0.135211	0
1.647814	0.332939	-0.249421	0
1.988690	0.171232	-0.048710	0
2.253801	0.104674	0.315591	0
1.905473	0.203138	0.213635	0
1.634156	0.427007	-0.155303	0
1.960260	0.062692	0.094662	0
1.876531	0.264642	0.555656	0
1.436358	0.186279	-0.209565	0
1.260447	0.462215	0.182265	0
2.280425	0.107321	0.337904	0
1.783776	0.334924	-0.422198	0
2.241316	0.082874	0.103405	0
1.746181	0.101231	-0.587925	0
1.187557	0.399768	0.359664	0
1.746685	0.286464	0.161247	0
2.076763	0.149260	-0.000146	0
1.483330	0.308462	-0.303193	0
2.245769	0.132923	-0.460608	0
1.799452	0.227654	0.176949	0
1.112594	0.540684	-0.327347	0
1.653317	0.197412	0.363099	0
2.061370	0.141295	0.266741	0
2.100398	0.166654	0.031068	0
1.813276	0.214648	-0.338565	0
1.776889	0.147111	-0.541547	0
1.946284	0.186434	-0.752710	0
1.672671	0.329611	-0.255603	0
2.055549	0.362797	0.098088	0
1.649965	0.289768	0.390828	0
2.009814	0.286901	-0.152205	0
1.516536	0.216968	-0.220717	0
1.915526	0.132003	-0.269062	0
1.639450	0.450188	0.166745	0
2.142317	0.191973	0.079705	0
1.634685	0.328925	-0.274499	0
1.830350	0.295745	-0.054745	0
1.573108	0.464624	-0.144677	0
1.878039	0.187404	0.114777	0
1.425065	0.266814	-0.421630	0
1.226889	0.470700	-0.150002	0
1.906734	0.159711	-0.197383	0
1.627243	0.272954	-0.041883	0
2.021475	0.156400	0.046529	0
1.404783	0.073785	0.015598	0
1.956047	0.201911	-0.311549	0
2.272165	0.104795	0.190404	0
1.715202	0.255246	-0.339090	0
1.398460	0.283798	0.106161	0
1.394468	0.225417	-0.230986	0
1.358954	0.229347	-0.133380	0
1.059793	0.291691	0.164283	0
1.050565	0.406651	0.230089	0
1.415468	0.338337	-0.003156	0
1.236735	0.368797	-0.016770	0
1.162494	0.488675	0.184864	0
1.597996	0.102469	0.104227	0
1.605912	0.230863	-0.204059	0
1.832603	0.280487	0.068877	0
2.091598	0.099559	0.162837	0
1.805091	0.261045	0.143595	0
2.057330	0.125440	-0.092953	0
1.128624	0.444575	-0.129576	0
1.403682	0.409535	0.211546	0
1.319706	0.361747	-0.177992	0
1.154262	0.416472	-0.292527	0
1.710653	0.170118	-0.130467	0
1.384519	0.254365	-0.264807	0
1.436338	0.368943	-0.241490	0
1.294626	0.447012	-0.355510	0
1.384257	0.427165	0.068292	0
1.495861	0.175459	-0.260438	0
1.532891	0.343071	-0.118591	0
1.463464	0.427931	-0.304608	0
2.044443	0.253928	-0.034187	0
1.860588	0.028794	0.467767	0
1.436394	0.230116	-0.053696	0
1.810307	0.130136	-0.271076	0
1.965264	0.141262	0.542331	0
1.301474	0.167566	-0.122162	0
1.583749	0.222964	-0.739723	0
1.795534	0.147032	0.018756	0
1.305970	0.360174	-0.286491	0
1.025699	0.463936	-0.247461	0
0.967249	0.345302	-0.313996	0
1.827243	0.170145	0.067641	0
1.336002	0.353116	-0.188744	0
1.584487	0.200657	-0.603249	0
1.171784	0.304617	-0.167886	0
1.179727	0.253466	0.154438	0
1.486759	0.345610	0.592373	0
1.228462	0.175821	-0.079451	0
1.896642	0.390602	0.057637	0
1.595277	0.229844	-0.042091	0
1.845076	0.127913	-0.536574	0
0.791792	0.559145	-0.012976	0
1.441125	0.219943	0.054937	0
1.123990	0.394648	-0.031680	0
1.488806	0.211809	-0.193626	0
1.384756	0.481627	0.084282	0
1.162024	0.412433	0.140030	0
1.409165	0.280771	-0.165073	0
1.122492	0.168075	0.079109	0
1.693614	0.298201	-0.270222	0
1.253390	0.413614	-0.379451	0
1.823458	0.217364	0.051822	0
2.022212	0.191318	0.207499	0
0.721834	0.264988	0.258053	0
0.903176	0.421309	-0.074615	0
1.644361	0.318600	0.227929	0
1.558993	0.411844	0.194902	0
0.768937	0.509862	0.503776	0
1.627105	0.055349	-0.138417	0
1.139076	0.437606	-0.056281	0
1.627261	0.159844	-0.380225	0
1.753188	0.209588	0.180155	0
1.694705	0.268464	0.444673	0
1.057172	0.440480	0.360087	0
1.490221	0.257615	-0.097037	0
1.516399	0.224192	-0.378330	0
1.903281	0.187725	0.414258	0
1.572240	0.229854	0.387830	0
0.414076	0.636774	0.214225	0
1.077715	0.628921	-0.039492	0
1.272786	0.110084	-0.516288	0
0.861940	0.456953	-0.281478	0
1.059719	0.515651	0.163575	0
1.470841	0.246673	0.175944	0
1.365842	0.166025	-0.071394	0
1.564620	0.220920	-0.414111	0
1.477856	0.200330	0.004964	0
1.404850	0.272548	-0.196351	0
1.317980	0.172388	0.025397	0
1.380468	0.386702	-0.049332	0
1.266321	0.389610	0.010310	0
1.319392	0.146025	-0.112065	0
1.211542	0.369835	-0.288291	0
0.961207	0.535373	-0.181105	0
0.942046	0.159875	-0.027101	0
0.617739	0.361429	0.333380	0
1.412659	0.151653	-0.171340	0
0.762703	0.470542	-0.142214	0
1.103045	0.317694	-0.053431	0
1.158451	0.472770	0.249245	0
1.252709	0.256532	0.266479	0
1.734828	0.173649	-0.098641	0
0.960080	0.383360	0.464540	0
1.551428	0.360945	0.078434	0
0.968783	0.328427	-0.051141	0
1.844891	0.131997	0.298633	0
1.297254	0.412695	0.071359	0
1.376813	0.215111	-0.081490	0
1.104381	0.277807	0.072915	0
1.806046	0.226816	0.602421	0
1.612049	0.146664	-0.691075	0
1.678786	0.196761	-0.121396	0
1.053668	0.495310	0.340214	0
0.960800	0.277640	0.130490	0
1.882702	0.124575	0.239160	0
1.474047	0.278021	0.141106	0
0.728822	0.401591	0.260618	0
1.668455	0.133009	-0.125637	0
0.794212	0.552953	0.453920	0
0.975693	0.260412	0.115178	0
1.331037	0.282009	-0.378526	0
1.233309	0.219030	0.196133	0
0.979764	0.197082	-0.001997	0
0.871216	0.427046	0.066807	0
1.281052	0.317039	0.107696	0
1.281173	0.138599	-0.059217	0
0.610554	0.410408	-0.237357	0
1.811169	0.083272	0.052735	0
0.874536	0.516857	-0.142818	0
1.114403	0.217764	-0.308547	0
1.532778	0.219631	-0.059927	0
1.748515	0.151030	0.094423	0
1.591719	0.224321	-0.303433	0
1.311945	0.132340	0.350123	0
1.246611	0.387385	0.006369	0
1.544435	0.179130	-0.346556	0
1.604033	0.166311	-0.060468	0
1.042267	0.221791	-0.348267	0
1.468695	0.250337	0.306843	0
1.102822	0.188823	-0.379825	0
1.624393	0.108758	0.126868	0
1.011263	0.462827	-0.528891	0
1.253232	0.236496	-0.488523	0
0.822278	0.304809	0.351275	0
1.192201	0.173932	-0.447816	0
1.390875	0.211654	0.197404	0
0.903373	0.276927	0.026379	0
0.807505	0.564952	-0.096791	0
0.956874	0.534018	-0.160389	0
0.774699	0.315564	0.098954	0
0.970975	0.197471	-0.060402	0
1.138445	0.300384	0.209117	0
0.988554	0.344864	-0.248903	0
1.217080	0.366128	-0.093420	0
1.266540	0.523041	0.238345	0
1.214158	0.077438	0.113373	0
1.149915	0.283099	-0.262050	0
1.234990	0.137718	-0.020570	0
1.447895	0.201383	0.724776	0
1.264151	0.346164	-0.214720	0
1.064901	0.379216	-0.154402	0
1.324661	0.160282	0.114277	0
0.769380	0.643048	0.017343	0
1.089904	0.402106	-0.283778	0
0.767789	0.392306	0.000772	0
1.418223	0.166852	0.215160	0
0.980961	0.354528	-0.270616	0
1.077507	0.484187	-0.343851	0
1.423475	0.127936	0.412352	0
1.312376	0.183802	0.078488	0
1.315208	0.171828	-0.361500	0
1.709229	0.130577	-0.314123	0
1.235263	0.381548	0.691923	0
1.594431	0.191327	0.392981	0
1.044228	0.376171	0.542377	0
1.356505	0.185832	-0.382595	0
0.930545	0.265292	0.172714	0
1.255520	0.396300	0.204778	0
1.024639	0.496286	-0.468393	0
1.095126	0.098471	-0.099612	0
1.178050	0.248532	-0.006319	0
1.613194	0.168018	-0.326854	0
1.181226	0.255517	-0.065166	0
1.026610	0.484074	-0.091796	0
1.075317	0.257747	-0.144771	0
0.951593	0.519658	-0.153080	0
1.041865	0.296803	0.257125	0
0.850625	0.437479	-0.107543	0
0.918770	0.332015	0.055767	0
0.805328	0.453515	0.278809	0
0.807146	0.592457	-0.139038	0
0.944324	0.169785	-0.033058	0
0.981292	0.229843	-0.294410	0
0.980293	0.253985	0.364323	0
0.994152	0.482521	0.382095	0
1.145594	0.374922	0.106082	0
1.427048	0.127802	0.469186	0
0.795960	0.294050	-0.202929	0
1.213789	0.277016	0.104786	0
1.347291	0.247010	0.099957	0
1.075039	0.449173	-0.299096	0
1.228305	0.545237	0.143839	0
0.730322	0.401678	-0.262276	0
0.084778	0.589616	-0.320856	0
1.186725	0.427818	-0.211761	0
0.949907	0.209138	0.075656	0
1.373374	0.195504	-0.462260	0
1.233885	0.395773	-0.290339	0
1.190061	0.239249	-0.250752	0
1.156027	0.206296	-0.383961	0
1.283617	0.159326	-0.061784	0
0.870978	0.428855	0.111581	0
0.984986	0.427587	0.220037	0
0.622624	0.283769	0.014290	0
0.863968	0.479534	-0.109402	0
0.979267	0.313600	-0.121093	0
1.279070	0.176953	-0.124733	0
0.847782	0.629916	-0.140110	0
1.162461	0.151417	0.112859	0
1.041714	0.202706	-0.333352	0
0.994187	0.339110	-0.032130	0
0.945309	0.347825	0.334025	0
1.126653	0.107690	-0.087570	0
1.222488	0.341959	-0.170673	0
1.159792	0.367412	0.253633	0
0.912034	0.248983	-0.105064	0
1.000729	0.172657	-0.045390	0
0.524751	0.353015	-0.690830	0
0.534009	0.508440	-0.330501	0
0.919309	0.211553	-0.591112	0
0.841995	0.520079	-0.172833	0
0.939752	0.482470	-0.289793	0
1.278774	0.223409	-0.047755	0
1.531997	0.172872	0.126247	0
0.736928	0.297480	0.133906	0
1.027105	0.378728	0.002433	0
1.008809	0.201068	-0.293337	0
0.911094	0.496415	-0.127360	0
1.003635	0.478829	-0.183207	0
1.444890	0.134949	0.130656	0
0.763208	0.305302	0.180169	0
0.906023	0.561891	0.125630	0
0.581129	0.260495	0.005562	0
1.222666	0.204263	0.575128	0
1.001565	0.420346	0.494411	0
1.103294	0.272715	0.171324	0
0.800123	0.297564	-0.450453	0
1.196585	0.481695	0.036493	0
0.965813	0.176653	-0.265298	0
1.325733	0.254327	0.557616	0
1.250645	0.155418	-0.232233	0
0.911309	0.399946	0.441315	0
0.795338	0.348187	-0.181323	0
1.269338	0.137976	0.404589	0
1.591381	0.275683	-0.217054	0
1.088801	0.159242	0.320670	0
1.325178	0.117445	-0.234722	0
1.111035	0.233920	0.234840	0
0.849538	0.093012	-0.064625	0
1.216907	0.102963	-0.142691	0
1.255948	0.141315	-0.299347	0
1.109682	0.361790	-0.137431	0
1.017242	0.255525	-0.507791	0
0.440013	0.662206	0.096877	0
0.950078	0.145781	-0.121461	0
1.212552	0.247983	-0.636877	0
1.257364	0.155767	-0.065866	0
1.427583	0.122332	0.070786	0
1.166318	0.074645	-0.452190	0
0.961918	0.149795	0.174872	0
0.854857	0.371098	0.075445	0
1.168118	0.128942	-0.749782	0
0.939686	0.288927	0.143378	0
1.225751	0.149550	-0.217263	0
1.481512	0.134683	0.153133	0
1.231580	0.196148	0.371710	0
0.643613	0.250660	-0.072350	0
0.657582	0.552380	0.221780	0
0.792020	0.502146	-0.376807	0
0.791712	0.250413	0.025847	0
0.968275	0.277637	-0.276548	0
0.793137	0.604329	-0.511152	0
0.749010	0.193428	-0.394854	0
0.400558	0.836918	-0.096835	0
0.267929	0.284061	-0.637362	0
1.380047	0.083970	-0.007767	0
1.458847	0.277161	0.810703	0
1.138999	0.185545	-0.234241	0
0.667480	0.597477	0.337523	0
1.262655	0.142827	0.103621	0
1.060964	0.116065	-0.154366	0
0.655942	0.416299	-0.197167	0
1.219009	0.152257	0.089190	0
1.112843	0.401264	-0.466522	0
0.871809	0.325386	-0.290832	0
0.988960	0.384100	0.170791	0
1.231983	0.130603	0.334999	0
1.391197	0.165110	0.241194	0
1.084839	0.120709	0.427086	0
0.674668	0.191567	0.158899	0
1.068854	0.190502	-0.559891	0
1.226829	0.140255	-0.327066	0
1.070673	0.158065	-0.402787	0
1.174874	0.121853	0.248731	0
0.735332	0.539452	-0.126128	0
0.739942	0.448783	-0.028504	0
1.072411	0.215146	0.017080	0
0.916410	0.268397	0.151955	0
1.131509	0.177488	-0.413176	0
0.735727	0.428177	0.321379	0
1.437542	0.255012	-0.066705	0
0.971045	0.202102	0.290331	0
1.114726	0.125625	-0.302550	0
0.841645	0.474039	0.146194	0
1.092187	0.256586	0.398548	0
0.979959	0.168239	-0.037826	0
0.596007	0.497064	-0.446217	0
0.548121	0.487297	-0.291776	0
1.211923	0.273931	-0.582519	0
1.000664	0.082421	0.009550	0
0.907313	0.324420	0.022488	0
1.105989	0.048615	-0.388155	0
0.735838	0.259649	-0.327410	0
0.948376	0.245085	-0.001571	0
1.129751	0.161643	0.248380	0
0.981712	0.126687	0.041269	0
0.895358	0.133492	-0.009720	0
1.053730	0.248535	-0.181746	0
1.046351	0.297969	0.432183	0
0.972053	0.310817	-0.167810	0
0.981385	0.180003	-0.094657	0
1.209165	0.180641	-0.105168	0
1.049875	0.194243	0.311060	0
0.866475	0.257940	-0.320484	0
0.594926	0.415995	0.116552	0
-0.086300	0.615175	0.233902	0
0.821707	0.245750	-0.221810	0
0.772274	0.334201	0.095259	0
1.100117	0.185533	-0.247427	0
1.025724	0.221111	-0.629447	0
0.997442	0.069922	0.099493	0
1.090271	0.143975	0.227020	0
0.667012	0.457305	-0.271905	0
0.867401	0.172169	-0.075498	0
1.061467	0.091913	-0.715243	0
1.253784	0.080279	-0.207919	0
0.881933	0.289260	-0.356054	0
0.832835	0.194645	-0.056762	0
1.156371	0.094148	-0.367204	0
1.018078	0.096428	-0.263683	0
0.877611	0.253028	0.060789	0
0.738352	0.309723	-0.186924	0
0.978735	0.169127	-0.193256	0
0.731275	0.399231	-0.232101	0
1.142211	0.198315	-0.279592	0
1.043404	0.188611	-0.232357	0
0.978233	0.100606	0.294759	0
0.860049	0.072991	0.091972	0
0.761669	0.480664	-0.208595	0
1.017026	0.246719	-0.299722	0
0.956442	0.606733	-0.101425	0
0.990093	0.173783	-0.383785	0
0.796255	0.269115	0.752378	0
0.460481	0.460596	-0.151899	0
0.870749	0.132831	0.011150	0
0.853304	0.185770	0.088042	0
1.011669	0.082137	-0.244223	0
1.074344	0.270373	0.210036	0
0.754394	0.575450	-0.312326	0
1.099835	0.112179	-0.532001	0
0.698066	0.397969	-0.179102	0
0.418980	0.421606	-0.305865	0
0.980191	0.144305	0.200452	0
0.814401	0.267749	0.097786	0
0.906666	0.275852	0.267987	0
0.967673	0.073145	0.039380	0
0.974058	0.135470	-0.281162	0
0.936950	0.230366	-0.338395	0
0.779489	0.499968	0.403874	0
0.758935	0.233219	-0.076766	0
0.838840	0.183590	0.256514	0
0.784443	0.224130	-0.137663	0
1.056534	0.224397	0.314161	0
0.940894	0.106232	0.214169	0
0.960775	0.118647	0.011078	0
0.997453	0.431511	-0.334508	0
1.053492	0.142049	0.634836	0
0.994839	0.098676	-0.226540	0
0.965062	0.121482	0.257886	0
0.973287	0.131204	-0.224912	0
0.676528	0.289243	-0.200369	0
1.044336	0.254423	-0.337754	0
0.933069	0.129408	-0.318155	0
1.036772	0.174533	0.215879	0
1.139359	0.169545	-0.552299	0
1.040880	0.192011	-0.256852	0
0.451536	0.503454	-0.122992	0
1.103823	0.230652	0.299172	0
0.739707	0.331775	-0.111506	0
0.897557	0.145897	-0.567558	0
0.975120	0.450490	-0.166617	0
0.798201	0.098801	-0.236349	0
0.943172	0.159915	-0.512063	0
0.431906	0.652456	0.474623	0
0.857408	0.068950	0.042219	0
0.868119	0.133122	-0.315162	0
0.802856	0.321965	0.115749	0
0.601361	0.280570	-0.451443	0
0.995682	0.234706	0.325052	0
0.759186	0.371605	0.247475	0
0.992162	0.152622	0.264547	0
0.377972	0.341238	0.141223	0
0.393444	0.527803	-0.253133	0
0.878958	0.200616	0.428387	0
1.030798	0.126417	0.354841	0
0.576679	0.284482	0.208378	0
0.816357	0.142676	0.359254	0
1.086320	0.102640	-0.198508	0
0.876875	0.310020	0.228446	0
0.868936	0.116967	0.254494	0
0.980740	0.218931	-0.397517	0
0.646246	0.492389	-0.062198	0
0.642024	0.540201	-0.180492	0
0.961895	0.201734	0.113330	0
1.009808	0.133421	-0.296731	0
0.946139	0.205383	-0.164603	0
0.872493	0.278546	-0.275346	0
0.929203	0.181462	-0.062622	0
1.049032	0.200587	-0.376162	0
0.994564	0.149356	-0.330246	0
0.636180	0.505518	0.023620	0
0.740606	0.185985	-0.236097	0
0.923072	0.213386	0.098208	0
0.923436	0.184123	-0.155592	0
0.663832	0.442528	-0.117980	0
0.417190	0.447042	-0.053117	0
1.034789	0.089713	-0.149325	0
0.859167	0.203931	0.010341	0
1.068820	0.155379	0.181847	0
1.281489	0.225930	-0.432622	0
0.932062	0.393524	0.046780	0
0.901292	0.150566	0.000914	0
0.869449	0.210560	-0.367813	0
0.824151	0.330116	0.689006	0
0.571512	0.391711	-0.528651	0
0.855330	0.179900	0.262097	0
0.872391	0.141405	-0.351861	0
0.565006	0.382767	-0.074620	0
0.476909	0.563254	-0.099459	0
0.869581	0.209424	-0.279086	0
0.866267	0.262002	-0.063827	0
0.813231	0.251214	-0.253111	0
1.059946	0.157956	-0.075590	0
0.948100	0.171007	0.177691	0
0.934456	0.122020	-0.279627	0
0.867784	0.188882	-0.066377	0
0.889212	0.231485	0.285859	0
0.730767	0.544046	-0.141187	0
0.773184	0.112847	-0.035019	0
0.427501	0.269251	-0.097534	0
0.803383	0.491561	-0.346241	0
0.812837	0.306195	0.244334	0
0.959203	0.186753	0.519117	0
0.855224	0.114252	-0.413727	0
0.974653	0.234845	-0.254915	0
1.067724	0.255574	-0.213220	0
0.670015	0.532151	-0.432528	0
0.893878	0.225078	0.726383	0
0.917370	0.180559	-0.011070	0
0.636238	0.593072	-0.010783	0
0.494396	0.362261	0.147611	0
0.869895	0.153264	-0.184917	0
0.517152	0.241858	0.263822	0
0.824214	0.227753	0.162973	0
0.668896	0.135699	-0.335801	0
0.642973	0.350441	0.607684	0
0.882636	0.175947	-0.241325	0
0.662507	0.183472	0.113092	0
0.791101	0.203698	0.279170	0
0.290608	0.413085	-0.099902	0
0.999318	0.232315	-0.292094	0
0.891180	0.091050	0.353864	0
0.834104	0.250753	0.278199	0
0.889502	0.154101	-0.381435	0
0.773557	0.129870	-0.074265	0
0.340579	0.633465	-0.141568	0
0.886695	0.237074	0.600770	0
0.854523	0.172325	0.172773	0
0.816464	0.128774	0.052530	0
0.545129	0.609428	0.051062	0
0.861244	0.210162	-0.014221	0
0.905010	0.188789	0.261363	0
0.893394	0.220863	0.325792	0
0.403899	0.548960	-0.315853	0
0.789629	0.169224	0.347321	0
1.023178	0.192786	-0.092933	0
0.934591	0.221838	-0.538689	0
0.866490	0.126444	-0.075291	0
0.898914	0.513270	-0.437269	0
0.776736	0.197693	-0.210099	0
0.879474	0.229293	0.355109	0
0.909180	0.106579	-0.109345	0
0.991387	0.170536	-0.256979	0
0.720463	0.237456	-0.126052	0
1.024024	0.175858	0.001989	0
0.636050	0.727477	0.611700	0
0.802447	0.174285	-0.554508	0
0.815415	0.247962	0.014386	0
0.861430	0.144063	0.472270	0
0.220304	0.554182	0.513010	0
1.054864	0.283061	-0.345937	0
0.940763	0.215684	0.070412	0
1.107997	0.096415	-0.577840	0
0.839993	0.145137	0.278517	0
0.778043	0.171174	0.326262	0
0.705774	0.173551	0.180676	0
0.901695	0.244301	0.019758	0
0.786736	0.177915	-0.245953	0
0.703571	0.195932	0.114310	0
0.890293	0.195874	0.399650	0
0.822027	0.175947	0.084160	0
0.876526	0.151588	-0.509064	0
1.021625	0.165920	-0.127279	0
1.028598	0.127740	0.087515	0
0.625905	0.405932	-0.304926	0
0.835237	0.166126	-0.318293	0
0.739884	0.161580	0.202443	0
0.837597	0.197725	0.338284	0
0.967848	0.107490	-0.316622	0
0.675311	0.435793	-0.470589	0
0.916440	0.099152	-0.144112	0
0.712791	0.175846	-0.112738	0
0.768166	0.238634	-0.078573	0
0.365623	0.373123	-0.472051	0
1.047620	0.221776	0.086739	0
0.919921	0.207978	-0.079716	0
0.859926	0.191345	0.244325	0
0.849360	0.143065	-0.476057	0
0.827661	0.201559	-0.269358	0
0.971122	0.100207	0.068480	0
0.989173	0.193804	-0.377212	0
0.804094	0.120887	0.223251	0
0.854126	0.291682	0.396340	0
0.787774	0.245550	0.033416	0
0.788665	0.098913	-0.294929	0
0.519753	0.450518	0.046466	0
0.656185	0.396428	-0.296363	0
0.862618	0.206027	-0.123014	0
0.837891	0.270241	-0.160001	0
0.733916	0.360422	0.167355	0
0.783926	0.134124	0.230176	0
0.944494	0.156791	0.251833	0
0.581725	0.180551	-0.781975	0
0.923256	0.157986	0.279595	0
0.916341	0.304651	0.053260	0
0.837377	0.171307	-0.173676	0
0.725859	0.150411	-0.164987	0
0.880240	0.168613	-0.354708	0
0.627159	0.194572	0.381907	0
0.904792	0.268548	-0.250895	0
0.875319	0.108422	-0.045412	0
0.863761	0.154885	-0.062112	0
0.823941	0.136505	0.293898	0
0.909901	0.118105	0.060375	0
0.772863	0.122794	0.029091	0
0.690691	0.170077	0.270484	0
0.421942	0.517470	-0.482614	0
0.808431	0.179390	0.066899	0
0.227353	0.637493	0.099470	0
0.749145	0.179290	0.317865	0
0.619898	0.220581	-0.240784	0
0.859952	0.263687	0.074499	0
0.231439	0.577724	0.242520	0
0.720211	0.399268	-0.255278	0
0.916319	0.126811	0.670648	0
0.673635	0.319625	0.029831	0
0.834934	0.144354	0.236396	0
1.148976	0.316151	-0.054516	0
0.859002	0.058159	-0.165936	0
0.682413	0.136639	-0.472664	0
0.827730	0.185425	0.293765	0
0.717278	0.179521	0.134936	0
0.839415	0.172593	0.121430	0
0.895269	0.109506	0.148008	0
0.857479	0.192100	-0.033290	0
0.743436	0.212599	0.071051	0
0.853906	0.155565	0.201341	0
0.782917	0.332277	-0.191681	0
0.656898	0.349982	0.494881	0
0.551344	0.455607	-0.399126	0
0.934267	0.155363	-0.283329	0
0.778149	0.269679	-0.209856	0
0.860622	0.191235	-0.247060	0
0.546005	0.290252	0.143807	0
0.735409	0.188177	-0.351088	0
0.943922	0.154223	-0.322104	0
0.881938	0.329402	-0.123255	0
0.747716	0.110912	-0.399460	0
0.922409	0.134531	0.263055	0
1.036672	0.179864	-0.115803	0
0.862528	0.085026	0.006372	0
0.687626	0.274190	0.204562	0
0.603595	0.506622	-0.237450	0
0.685730	0.422141	-0.529884	0
0.888865	0.215552	0.196326	0
0.888657	0.142539	0.119629	0
0.631136	0.249608	0.351577	0
0.851324	0.079876	-0.425618	0
0.852083	0.280042	-0.126845	0
0.765310	0.066754	-0.027628	0
0.856416	0.167170	-0.150260	0
0.825814	0.181819	-0.516926	0
0.804526	0.229049	-0.014315	0
0.750692	0.187290	-0.389045	0
0.890090	0.163774	-0.076405	0
0.785711	0.265548	0.196217	0
0.212629	0.555911	-0.251345	0
0.689947	0.272281	-0.213913	0
0.715924	0.056149	-0.404926	0
0.847336	0.453327	-0.081046	0
0.813098	0.174312	0.040985	0
0.958980	0.311680	-0.435411	0
0.682093	0.285395	-0.505028	0
0.765814	0.201968	0.161758	0
0.662875	0.222364	0.069397	0
0.385010	0.585008	-0.282282	0
0.524878	0.657913	0.406039	0
0.132790	0.515558	-0.015836	0
0.890269	0.211783	-0.105077	0
0.883754	0.223941	0.308998	0
0.965681	0.118127	0.187667	0
0.794726	0.213527	0.228797	0
0.728712	0.132011	0.290559	0
0.675050	0.228767	0.086193	0
0.796557	0.122539	0.304997	0
0.866953	0.153604	-0.116096	0
0.837011	0.229181	-0.137213	0
0.749988	0.242073	0.197195	0
0.781041	0.205897	0.253051	0
0.878330	0.220718	-0.274291	0
0.729555	0.206161	0.326544	0
0.775690	0.099439	0.624633	0
0.386174	0.527251	-0.023472	0
0.698245	0.279603	-0.220270	0
0.759414	0.261174	-0.404757	0
0.832914	0.284105	0.240771	0
0.643925	0.176348	-0.072886	0
0.704911	0.191281	0.162878	0
0.738279	0.170913	-0.117251	0
0.844759	0.261051	0.120879	0
0.872504	0.200334	-0.358275	0
0.955221	0.434413	0.416358	0
0.759839	0.258806	-0.055931	0
0.821721	0.158009	0.362162	0
0.906452	0.180787	-0.119916	0
0.773066	0.120424	-0.135872	0
0.702627	0.158481	-0.215584	0
0.729740	0.246423	-0.002635	0
0.865163	0.252317	0.634473	0
0.669570	0.194729	0.304251	0
0.825179	0.107845	-0.460893	0
0.699589	0.499561	-0.004674	0
0.712446	0.220133	0.226272	0
0.791643	0.180488	0.013749	0
0.874002	0.177217	0.115778	0
0.816969	0.113857	-0.578115	0
0.714350	0.148235	0.031947	0
0.332760	0.379262	-0.335074	0
0.754123	0.167827	-0.501386	0
0.676734	0.322697	-0.033364	0
0.837438	0.090025	-0.202032	0
0.503358	0.506669	0.112191	0
0.475754	0.431563	0.109697	0
0.881844	0.184365	-0.241399	0
0.946033	0.174105	-0.219249	0
0.634698	0.224867	-0.012006	0
0.788655	0.122719	0.246022	0
0.745896	0.219416	0.276029	0
0.772764	0.169568	0.201203	0
0.740522	0.197607	-0.281919	0
0.944556	0.151930	0.286027	0
0.717673	0.157503	-0.263357	0
0.630267	0.176602	-0.099030	0
0.533160	0.464954	-0.025453	0
0.843417	0.156803	-0.186432	0
0.739863	0.121130	0.704043	0
0.593448	0.502985	-0.410900	0
0.655053	0.179623	-0.125569	0
0.724011	0.217858	0.273105	0
0.790511	0.171594	0.262596	0
0.777216	0.194859	-0.287033	0
0.808892	0.238058	0.428513	0
0.769037	0.302825	-0.181488	0
0.805016	0.076444	0.391591	0
0.828398	0.113999	-0.479123	0
0.872852	0.417011	0.502132	0
0.406072	0.466456	0.323039	0
0.278255	0.913400	0.143875	0
0.709785	0.354300	0.366421	0
0.687049	0.246306	-0.188104	0
0.967526	0.211325	0.285607	0
0.806747	0.179651	-0.582611	0
0.764339	0.185451	-0.173355	0
0.658264	0.145341	-0.142025	0
0.508313	0.289184	0.258124	0
0.624311	0.057398	0.474411	0
0.810858	0.206104	-0.021886	0
0.819702	0.145308	-0.045956	0
0.729562	0.174466	-0.414309	0
0.187967	0.566091	0.106562	0
0.767936	0.212127	-0.510528	0
0.763963	0.245648	0.242089	0
0.720578	0.176857	0.515644	0
0.586852	0.376294	0.146599	0
0.866645	0.187841	-0.101327	0
0.758545	0.143000	-0.097155	0
0.509233	0.195621	0.209886	0
0.814861	0.150472	0.030117	0
0.697871	0.224784	0.226886	0
0.836236	0.242507	0.028510	0
0.768690	0.140729	-0.190536	0
0.819912	0.245616	-0.541331	0
0.687389	0.218715	-0.516949	0
0.439059	0.391141	0.338238	0
0.809858	0.154910	0.557501	0
0.742933	0.126623	-0.026556	0
0.789231	0.218888	-0.210086	0
0.741974	0.211303	-0.494970	0
0.810951	0.169358	-0.181983	0
0.579978	0.169670	-0.174925	0
0.666815	0.349615	-0.008981	0
0.803359	0.191023	0.010342	0
0.756940	0.152158	0.293229	0
0.856784	0.315492	-0.130586	0
0.803784	0.178391	0.248192	0
0.814439	0.165971	0.133734	0
0.691295	0.357099	-0.087574	0
0.718573	0.126758	-0.111517	0
0.810671	0.143338	0.370231	0
0.757025	0.092643	-0.166131	0
0.785719	0.199395	-0.495790	0
0.892363	0.182813	0.191723	0
0.665243	0.187034	-0.081300	0
0.653036	0.271982	-0.286532	0
0.734283	0.223752	0.018391	0
0.492967	0.416883	-0.214775	0
0.424607	0.371394	-0.306614	0
0.811666	0.189341	0.477425	0
0.667734	0.252154	-0.102532	0
0.763685	0.263890	-0.016200	0
0.713612	0.119862	0.060521	0
0.600985	0.254026	-0.021853	0
0.662631	0.226423	-0.154967	0
0.523663	0.315827	-0.424216	0
0.565726	0.432705	0.493578	0
0.640151	0.246755	0.127500	0
0.662889	0.119672	0.191398	0
0.662443	0.056020	-0.088355	0
0.641161	0.204342	0.234511	0
0.539999	0.272309	0.058347	0
0.726937	0.174871	-0.301735	0
0.948310	0.234531	-0.002842	0
0.686222	0.134935	0.386800	0
0.674630	0.302595	0.259396	0
0.629755	0.196619	0.276826	0
0.756492	0.100051	-0.707079	0
0.736578	0.211455	-0.050085	0
0.619165	0.257672	0.306015	0
0.753664	0.203042	-0.000634	0
0.562394	0.248926	0.143113	0
0.592810	0.167404	-0.261837	0
0.623364	0.242884	-0.418062	0
0.518592	0.400381	-0.483809	0
0.603217	0.222303	0.002680	0
0.596706	0.302605	0.317455	0
0.468454	0.340222	-0.243685	0
0.633103	0.154276	-0.058695	0
0.794247	0.116796	0.009825	0
0.471431	0.673619	0.230415	0
0.675887	0.179537	-0.199377	0
0.745360	0.176208	0.583828	0
0.749152	0.212055	-0.206705	0
0.325470	0.665536	-0.192201	0
0.545676	0.444131	-0.393239	0
0.745012	0.091682	-0.068823	0
0.787100	0.265780	-0.426841	0
0.789881	0.180228	-0.110385	0
0.731052	0.326662	0.211218	0
0.519315	0.326761	0.409295	0
0.699347	0.187778	-0.364114	0
0.767189	0.149758	0.308577	0
0.625630	0.314042	0.503558	0
0.785751	0.131454	-0.065999	0
0.645459	0.234511	-0.025450	0
0.533276	0.226070	-0.100566	0
0.779157	0.108571	0.161163	0
0.718745	0.095198	-0.158923	0
0.693137	0.156000	0.202281	0
0.823518	0.137888	-0.244828	0
0.693086	0.224249	0.229423	0
0.554668	0.321277	-0.204520	0
0.856714	0.138155	-0.429129	0
0.749655	0.278996	0.257867	0
0.047200	0.453143	0.150486	0
0.379006	0.335629	-0.359676	0
0.645777	0.190573	0.084130	0
0.595428	0.186024	0.270896	0
0.689340	0.280532	0.370284	0
0.770351	0.026795	-0.365582	0
0.885648	0.181074	-0.073958	0
0.610181	0.172655	-0.039596	0
0.843970	0.158395	-0.370791	0
0.656522	0.261516	0.503341	0
0.718311	0.119354	-0.095921	0
0.731574	0.178122	-0.242916	0
0.693694	0.138641	0.140316	0
0.820147	0.199208	0.614312	0
0.406448	0.408345	0.024626	0
0.604347	0.220405	0.170026	0
0.549919	0.251015	-0.321989	0
0.449693	0.517569	-0.261319	0
0.723131	0.208464	0.315589	0
0.658063	0.227723	-0.153978	0
0.682873	0.260187	-0.599701	0
0.792561	0.177342	-0.548089	0
0.637399	0.212741	-0.405794	0
0.764331	0.200089	-0.001532	0
0.251244	0.271875	-0.000653	0
0.549959	0.402251	0.289708	0
0.657175	0.188720	-0.141427	0
0.605920	0.265996	-0.043106	0
0.725454	0.171887	-0.617288	0
0.817023	0.252685	-0.149545	0
0.708862	0.293315	-0.089349	0
0.589080	0.114345	0.064346	0
0.420159	0.310141	0.095232	0
0.840323	0.150654	-0.273568	0
0.647233	0.173498	0.255423	0
0.733337	0.265900	0.627064	0
0.676771	0.111628	-0.299149	0
0.707704	0.134131	-0.305645	0
0.643939	0.134637	0.084506	0
0.747614	0.240978	0.040849	0
0.880367	0.277514	-0.367089	0
0.631315	0.165655	-0.237144	0
0.479245	0.269521	-0.299173	0
0.795505	0.152667	0.113648	0
0.708305	0.225910	0.091221	0
0.827409	0.203079	-0.171590	0
0.614786	0.174547	-0.158648	0
0.507056	0.363556	-0.228685	0
0.556302	0.233973	0.186262	0
0.778566	0.155745	-0.519110	0
0.452515	0.107806	0.365100	0
0.648589	0.210728	-0.127154	0
0.706846	0.168114	-0.012769	0
0.517946	0.215597	-0.347789	0
0.644893	0.218319	-0.288964	0
0.692965	0.163498	-0.208619	0
0.802799	0.159935	0.015073	0
0.743534	0.353070	0.066007	0
0.694535	0.138229	-0.323510	0
0.649222	0.230260	-0.231361	0
0.779717	0.126019	0.086379	0
0.680818	0.170413	-0.309900	0
0.362951	0.344425	-0.059479	0
0.725334	0.234266	-0.100320	0
0.736173	0.148330	-0.176829	0
0.417938	0.358130	-0.332264	0
0.736373	0.215298	-0.171673	0
0.696838	0.347927	-0.413921	0
0.600319	0.250720	0.024262	0
0.615288	0.305311	-0.073687	0
0.649761	0.229445	0.091695	0
0.676509	0.093245	-0.505416	0
0.891990	0.154327	-0.082179	0
0.837350	0.167448	-0.057808	0
0.658547	0.190077	0.348491	0
0.520659	0.589063	0.413170	0
0.607888	0.120733	-0.139657	0
0.872284	0.261787	-0.397859	0
0.178105	0.702350	0.354057	0
0.679883	0.134779	0.457198	0
0.818751	0.127036	-0.069801	0
0.820996	0.216622	0.410268	0
0.584782	0.185448	-0.134517	0
0.724859	0.170231	-0.469929	0
0.418095	0.257405	-0.243383	0
0.561618	0.377542	0.249679	0
0.610909	0.173255	-0.399530	0
0.743000	0.526008	0.493464	0
0.613836	0.270009	0.045548	0
0.751136	0.128322	-0.116141	0
0.550749	0.303434	0.257514	0
0.768998	0.215678	-0.260266	0
0.733722	0.370130	0.277282	0
0.667631	0.358366	-0.231575	0
0.654376	0.210005	-0.807308	0
0.718301	0.062756	-0.465156	0
0.868831	0.130250	0.212447	0
0.663522	0.302470	0.351493	0
0.752334	0.200851	0.165900	0
0.601769	0.333267	0.218216	0
0.670067	0.179322	0.118047	0
0.438503	0.411932	0.143047	0
0.632414	0.351272	0.615339	0
0.566722	0.292504	-0.561396	0
0.656022	0.244935	-0.257004	0
0.857802	0.203508	0.138387	0
0.731745	0.121858	0.248244	0
0.686496	0.191940	-0.401199	0
0.336430	0.455408	-0.050015	0
0.542802	0.238092	0.330017	0
0.566887	0.199909	-0.036405	0
0.662234	0.206621	-0.386079	0
0.808224	0.157049	-0.384897	0
0.562692	0.236148	0.160049	0
0.616607	0.195894	0.218352	0
0.517088	0.122041	0.517426	0
0.532745	0.219328	-0.083087	0
0.562888	0.219349	0.076832	0
0.825211	0.229973	-0.748576	0
0.720699	0.434882	0.087662	0
0.564077	0.317231	-0.168169	0
0.788712	0.240199	-0.024720	0
0.631380	0.203354	0.458113	0
0.657667	0.205895	0.318991	0
0.732983	0.249331	0.207280	0
0.723203	0.079229	-0.072849	0
0.647145	0.187685	0.550762	0
0.671589	0.215100	0.437810	0
0.637580	0.105236	-0.136836	0
0.572714	0.284109	-0.589319	0
0.827884	0.310469	-0.100755	0
0.579893	0.203649	0.193979	0
0.648792	0.178742	-0.237629	0
0.722915	0.202721	-0.271944	0
0.693244	0.101353	-0.173741	0
0.511893	0.118701	-0.172702	0
0.499001	0.157832	-0.021827	0
0.648894	0.182396	-0.209929	0
0.713020	0.157393	-0.028965	0
0.661115	0.303103	0.213936	0
0.728021	0.142841	-0.013492	0
0.739787	0.239158	-0.291730	0
0.837465	0.108713	-0.135113	0
0.571884	0.367367	-0.580824	0
0.742575	0.114657	-0.061607	0
0.701093	0.183730	0.609558	0
0.198171	0.598648	0.231561	0
0.606278	0.252168	0.478882	0
0.757004	0.150616	0.465881	0
0.783188	0.188982	-0.263343	0
0.712075	0.161554	-0.214793	0
0.533824	0.180566	-0.060033	0
0.648097	0.226300	0.523937	0
0.810762	0.123448	-0.059665	0
0.798782	0.071219	-0.092558	0
0.669509	0.174578	-0.309817	0
0.591387	0.132400	-0.236306	0
0.698931	0.227587	-0.301084	0
0.723625	0.179504	-0.130270	0
0.781224	0.226753	-0.217555	0
0.743629	0.075469	-0.534256	0
0.695937	0.123519	-0.535799	0
0.689762	0.193643	-0.458786	0
0.608238	0.218155	0.057296	0
0.618272	0.142021	-0.741701	0
0.595649	0.260323	-0.508178	0
0.757152	0.218730	0.397590	0
0.608772	0.153173	0.681335	0
0.655734	0.217640	-0.209467	0
0.569808	0.231871	-0.204515	0
0.653043	0.308300	-0.075104	0
0.574408	0.296570	0.081193	0
0.745569	0.318548	-0.339010	0
0.653773	0.212337	-0.045761	0
0.608612	0.131215	-0.496459	0
0.658815	0.125111	-0.297113	0
0.691573	0.168885	-0.468100	0
0.639651	0.075083	-0.052631	0
0.682311	0.180546	0.226221	0
0.786390	0.182923	-0.032570	0
0.821397	0.115417	-0.094258	0
0.835148	0.130341	0.030939	0
0.769174	0.106602	0.331964	0
0.730550	0.201642	-0.103873	0
0.657144	0.153318	0.421317	0
0.628814	0.137698	0.151265	0
0.714491	0.220702	0.230666	0
0.653708	0.129281	-0.060012	0
0.597348	0.213037	0.467040	0
0.701374	0.205011	-0.133410	0
0.592861	0.263012	-0.086598	0
0.667396	0.184291	-0.124235	0
0.728163	0.176792	0.286394	0
0.306167	0.474206	-0.071655	0
0.677425	0.142827	-0.107950	0
0.631752	0.250027	0.291217	0
0.701238	0.195281	-0.455872	0
0.672897	0.237625	0.275809	0
0.647512	0.121218	-0.497455	0
0.712931	0.168497	0.228390	0
0.519789	0.415516	0.214366	0
0.389755	0.226739	0.030480	0
0.615985	0.271389	-0.713896	0
0.640986	0.184442	0.209731	0
0.286769	0.372279	-0.161836	0
0.025007	0.337996	-0.012213	0
0.471921	0.479569	-0.305198	0
0.798401	0.086384	0.069079	0
0.620601	0.315599	-0.000651	0
0.681283	0.150553	-0.009895	0
0.511988	0.234943	-0.252669	0
0.558984	0.128894	-0.172633	0
0.460440	0.274682	-0.016210	0
0.699810	0.220591	0.054070	0
0.622485	0.119092	0.119942	0
0.713733	0.232300	-0.178922	0
0.717315	0.163213	-0.203328	0
0.721730	0.149109	0.481763	0
0.642897	0.328041	-0.279273	0
0.476784	0.257606	-0.171119	0
0.263274	0.699923	-0.272120	0
0.583520	0.305670	0.554148	0
0.780363	0.182559	0.462054	0
0.588884	0.286139	0.055406	0
0.716158	0.212323	-0.313378	0
0.546447	0.154962	-0.457656	0
0.747396	0.146934	-0.670905	0
0.624575	0.184685	-0.587565	0
0.678984	0.244068	0.435315	0
0.574909	0.403872	0.239288	0
0.572125	0.205036	0.075618	0
0.757808	0.182425	-0.307961	0
0.581828	0.147403	-0.283578	0
0.606577	0.385679	0.124837	0
0.473731	0.293637	-0.143712	0
0.245888	0.567376	0.080842	0
0.746821	0.157339	0.036962	0
0.651569	0.237039	0.091453	0
0.703361	0.257236	-0.126616	0
0.626780	0.251059	0.345391	0
0.549773	0.280501	-0.071792	0
0.590159	0.208849	0.166967	0
0.459454	0.364108	-0.137738	0
0.755484	0.235433	-0.354363	0
0.681525	0.147351	-0.172873	0
0.653273	0.259710	-0.131696	0
0.506943	0.294157	-0.361565	0
0.525697	0.411106	0.242349	0
0.694567	0.121226	0.446790	0
0.489505	0.362334	-0.646482	0
0.647417	0.274406	-0.053592	0
0.028031	0.644417	-0.079253	0
0.666277	0.332766	0.453327	0
0.487703	0.591205	-0.105242	0
0.640535	0.280536	-0.174152	0
0.455539	0.469521	-0.043554	0
0.680383	0.172491	-0.183673	0
0.330127	0.505376	0.147483	0
0.493233	0.279174	0.131262	0
0.775077	0.108472	-0.031921	0
0.738458	0.185557	-0.207604	0
0.651281	0.332077	-0.034145	0
0.716988	0.233418	0.116597	0
