1.606612	0.244670	-0.452529	1
1.438161	0.284964	-0.081550	1
1.742043	0.325364	-0.073952	1
2.017858	0.202237	0.158920	1
1.739395	0.222248	-0.208139	1
2.179447	0.193327	0.015767	1
1.788314	0.201165	-0.075435	1
2.195163	0.230207	-0.152410	1
1.780604	0.245882	-0.152205	1
2.363698	0.161918	-0.168147	1
1.937314	0.164829	0.062355	1
1.704431	0.274891	0.473405	1
1.509039	0.199201	0.010114	1
1.604485	0.289733	-0.158527	1
2.120091	0.095770	-0.016235	1
2.006397	0.226898	0.267746	1
2.083369	0.147930	0.039138	1
1.760418	0.117786	0.019803	1
2.265134	0.291543	-0.091403	1
1.886382	0.264435	0.135740	1
2.158721	0.250153	-0.100017	1
2.156259	0.238926	-0.229716	1
1.933570	0.203669	-0.157748	1
1.891731	0.200236	0.596543	1
1.973835	0.242294	0.118621	1
1.919042	0.131915	-0.163406	0
0.988213	0.400312	0.382850	0
1.769910	0.380757	0.418723	0
1.660484	0.391441	-0.097215	0
1.862639	0.370715	0.024290	0
1.784707	0.263139	0.129862	0
0.894365	0.474510	-0.005706	0
1.776627	0.398457	0.035198	0
2.202094	0.413832	-0.161776	0
1.709103	0.373123	0.124316	0
1.572315	0.368991	0.078198	0
1.752910	0.376219	0.006468	0
1.750872	0.483931	0.067761	0
1.854537	0.473826	0.180430	0
1.266312	0.512946	0.167461	0
1.530356	0.436412	0.238235	0
1.811913	0.399374	0.366812	0
1.521078	0.407502	0.296665	0
-0.015868	0.534132	0.543516	0
1.118935	0.529736	0.336688	0
1.458863	0.435718	0.204282	0
1.825423	0.303590	0.167067	0
1.949587	0.321749	0.422838	0
1.542564	0.424079	0.187097	0
1.807432	0.450134	-0.188774	0
1.126659	0.513789	0.147559	0
1.922852	0.289953	0.276228	0
1.423364	0.509156	-0.197728	0
0.988791	0.454169	-0.138531	0
1.844248	0.530622	-0.299053	0
1.454764	0.403866	0.125239	0
1.528170	0.530532	0.293014	0
1.889602	0.243923	0.241973	0
1.727561	0.447810	0.028605	0
1.387020	0.424996	0.310434	0
1.890898	0.270495	-0.007673	0
1.810167	0.363659	0.163849	0
1.457619	0.404699	0.062361	0
1.641496	0.332506	-0.081813	0
1.597665	0.529612	-0.278987	0
2.178428	0.352004	0.095319	0
1.717303	0.453015	-0.118302	0
1.524350	0.412252	0.209242	0
1.440584	0.454141	0.197474	0
1.633132	0.375819	0.085474	0
1.727943	0.571575	0.208799	0
1.725352	0.344047	0.223266	0
1.433664	0.299842	-0.227572	0
1.985086	0.364253	0.036663	0
1.434260	0.531398	0.137547	0
1.187202	0.592552	0.269898	0
1.799959	0.346134	0.394826	0
1.153054	0.606616	0.164026	0
1.615924	0.426564	-0.006443	0
2.131741	0.303535	0.171907	0
1.998439	0.285281	0.168128	0
1.129878	0.536863	-0.095890	0
1.884288	0.393427	-0.264095	0
1.689078	0.397614	0.141168	0
1.467728	0.514342	0.199523	0
1.096589	0.507466	0.010477	0
1.104585	0.401787	0.125865	0
1.370792	0.456331	-0.305503	0
1.248742	0.318011	0.358220	0
1.716298	0.290555	0.066114	0
1.153150	0.597033	-0.281458	0
0.990229	0.474773	0.045528	0
1.645402	0.321241	-0.053670	0
1.108490	0.474031	-0.064566	0
1.212165	0.448408	-0.202559	0
1.601978	0.457407	-0.015048	0
1.594258	0.404375	0.222371	0
0.940751	0.532920	-0.212492	0
1.254767	0.460555	-0.213269	0
0.930829	0.625691	-0.185853	0
1.172868	0.504346	0.264257	0
1.039276	0.482906	-0.026947	0
1.557218	0.266503	-0.099561	0
0.339030	0.502822	-0.470630	0
0.713443	0.481218	-0.132048	0
1.422505	0.358086	-0.201424	0
0.035991	0.498637	0.504008	0
1.471260	0.534616	0.356102	0
1.236448	0.430861	-0.036731	0
1.397153	0.588984	0.152549	0
1.919824	0.324588	0.037549	0
1.571640	0.340861	-0.077768	0
1.277258	0.476139	0.024716	0
1.516314	0.560627	0.083581	0
1.363518	0.441128	-0.293166	0
1.678189	0.520844	0.236097	0
1.563386	0.321979	0.164993	0
1.538882	0.305784	0.182040	0
1.124297	0.570789	-0.261009	0
1.455868	0.379157	-0.186028	0
1.475115	0.382505	0.400079	0
1.610836	0.371375	-0.105650	0
1.822909	0.188082	0.027003	0
1.242774	0.462550	0.208454	0
1.001249	0.536807	0.287630	0
1.654322	0.417250	0.011837	0
1.231054	0.505646	-0.074264	0
1.534453	0.322111	-0.165062	0
0.448599	0.450702	-0.133208	0
1.622183	0.328097	0.205049	0
1.372810	0.452327	0.357034	0
0.918322	0.484119	0.260519	0
1.264941	0.530803	-0.187472	0
1.592629	0.426235	0.126660	0
0.946016	0.523132	0.276060	0
1.377318	0.485360	0.127039	0
1.222726	0.455032	-0.317602	0
1.559971	0.413187	0.356349	0
1.168108	0.523171	0.276459	0
1.527575	0.447263	-0.127115	0
1.351174	0.314664	0.136257	0
0.730907	0.440904	-0.474537	0
1.068635	0.510583	-0.110431	0
1.194777	0.391397	0.140007	0
1.991676	0.219308	0.119419	0
0.975790	0.448142	0.005496	0
1.540576	0.298179	-0.132596	0
0.262548	0.463153	0.173819	0
1.418070	0.409183	0.255859	0
1.579993	0.404218	0.024424	0
1.299571	0.398799	0.205955	0
1.037922	0.453353	0.226978	0
1.106368	0.482280	0.163650	0
0.998659	0.568958	0.294673	0
1.168633	0.427373	0.085099	0
1.002171	0.524236	0.004708	0
1.148282	0.410713	-0.137574	0
1.308455	0.489652	0.491018	0
1.536347	0.461910	0.033299	0
1.510679	0.387077	0.397568	0
1.326331	0.453790	0.448333	0
1.463797	0.277747	0.081716	0
1.512672	0.420399	-0.194622	0
1.299256	0.463844	-0.033609	0
1.412372	0.394916	-0.187435	0
1.301200	0.353364	-0.242506	0
1.325821	0.559395	0.150127	0
1.252425	0.467129	0.017549	0
1.528778	0.356997	-0.060638	0
1.537405	0.280663	-0.002321	0
1.487701	0.293971	0.311225	0
1.081763	0.548075	0.102623	0
1.107803	0.508388	0.100268	0
1.896631	0.276603	0.118685	0
1.716659	0.338041	0.010009	0
1.040214	0.618192	0.293900	0
1.167826	0.408827	-0.127032	0
0.877949	0.573411	-0.096739	0
1.493957	0.410869	-0.229872	0
1.875159	0.352813	-0.081786	0
1.460863	0.420759	0.088239	0
1.515509	0.429099	-0.082681	0
0.628871	0.622503	0.152938	0
1.271726	0.532255	0.571954	0
1.544391	0.447421	0.163745	0
1.267808	0.467999	-0.041290	0
1.420650	0.426616	0.155681	0
1.158014	0.454067	0.523540	0
1.684407	0.382348	0.232065	0
1.277954	0.575542	0.416495	0
1.140561	0.510273	-0.074495	0
1.238345	0.503066	0.175932	0
0.745736	0.444706	-0.050972	0
1.175237	0.504496	0.176398	0
1.128227	0.545765	0.436131	0
1.569236	0.279640	0.105425	0
1.173105	0.404038	0.062566	0
1.187765	0.435779	-0.078888	0
0.512863	0.591413	-0.174587	0
0.932991	0.587008	-0.279873	0
0.981192	0.471853	-0.302357	0
1.047148	0.622567	0.036345	0
1.419291	0.428588	-0.141154	0
1.423632	0.491521	0.372799	0
1.294491	0.467414	-0.217286	0
1.271076	0.426097	0.100056	0
1.259197	0.474711	0.222853	0
1.175871	0.543840	0.273387	0
1.711322	0.268968	0.090536	0
1.672697	0.344829	-0.111639	0
0.490803	0.558649	-0.107529	0
-0.258850	0.396675	0.496162	0
0.435226	0.604321	-0.034447	0
1.059050	0.394578	-0.507390	0
1.101279	0.561353	0.400584	0
1.066060	0.495817	0.136734	0
1.311036	0.386603	0.207606	0
1.102546	0.607506	0.360556	0
1.295082	0.319944	-0.008654	0
0.459546	0.525741	0.576681	0
1.284850	0.482970	-0.145777	0
0.651657	0.555357	0.253881	0
1.330220	0.404005	-0.097232	0
1.190027	0.419722	-0.124376	0
1.275888	0.421969	0.178346	0
1.348737	0.517050	0.006532	0
1.349775	0.327475	-0.135251	0
0.927585	0.464357	-0.337973	0
1.162149	0.411502	0.619172	0
1.209880	0.416621	0.445957	0
0.276572	0.585943	0.180753	0
0.173148	0.451552	0.159489	0
0.482442	0.518783	-0.211739	0
0.962106	0.542380	0.085177	0
1.223961	0.462953	-0.143059	0
1.278210	0.498011	0.067614	0
0.999785	0.453416	-0.002420	0
1.239914	0.555725	-0.149203	0
1.544609	0.388757	-0.010342	0
1.358493	0.319810	0.391832	0
1.386428	0.434213	-0.201438	0
1.423390	0.352789	0.092009	0
1.178072	0.334538	-0.180840	0
0.820080	0.552015	-0.113560	0
1.224702	0.445830	-0.031325	0
1.230074	0.521262	0.093053	0
0.211307	0.457209	-0.157925	0
1.409397	0.475810	-0.125904	0
1.271037	0.497214	0.061977	0
0.806614	0.540469	-0.102033	0
0.554994	0.630683	-0.001285	0
0.489494	0.608405	0.134055	0
0.830654	0.501070	0.036137	0
1.052276	0.531700	0.073054	0
1.332488	0.381488	0.275679	0
1.206879	0.431128	0.221941	0
0.153838	0.387902	0.095984	0
1.079201	0.460466	-0.202010	0
1.343841	0.399429	-0.023148	0
0.220427	0.537966	0.255629	0
1.076215	0.385071	0.118660	0
1.024436	0.457793	0.021174	0
0.980259	0.578409	0.024467	0
0.312716	0.537531	-0.030662	0
0.246724	0.435482	-0.033330	0
0.150383	0.599081	0.034988	0
1.125834	0.471633	-0.150923	0
1.119897	0.508736	-0.016786	0
0.539185	0.552441	-0.001711	0
1.217911	0.423568	-0.108001	0
1.302557	0.407992	0.104779	0
0.671223	0.476568	0.132980	0
1.186897	0.414728	0.242742	0
1.146455	0.393431	-0.100053	0
1.592500	0.374415	-0.210443	0
-0.007897	0.441390	-0.239418	0
1.413341	0.257647	-0.116668	0
0.442725	0.577370	0.036612	0
0.008408	0.578491	-0.353239	0
0.473682	0.569689	-0.010443	0
1.213996	0.313711	0.136537	0
0.509865	0.625612	0.055263	0
0.370602	0.477046	0.087540	0
1.148355	0.468577	-0.220164	0
1.144958	0.362749	-0.231628	0
0.968710	0.314980	0.010232	0
0.277413	0.524467	-0.040788	0
0.953466	0.569919	-0.145677	0
0.451114	0.487972	-0.177321	0
0.358600	0.510069	-0.193202	0
1.375795	0.373746	0.095084	0
0.651078	0.557240	-0.058843	0
-0.121285	0.481350	0.230742	0
1.196334	0.479198	0.461893	0
0.325119	0.625299	0.051394	0
0.503085	0.331412	0.011762	0
0.926033	0.397142	0.144147	0
0.847436	0.392387	-0.067577	0
1.310576	0.376410	-0.148446	0
0.913207	0.556307	0.041169	0
1.348136	0.451799	0.080222	0
1.348932	0.354599	0.214225	0
0.043138	0.571031	-0.123770	0
0.614921	0.604488	-0.087596	0
0.386895	0.638450	-0.047375	0
0.982637	0.418343	-0.084679	0
-0.364038	0.616008	-0.094591	0
1.119390	0.547883	0.286843	0
0.630944	0.603249	0.036037	0
0.067070	0.601814	0.229132	0
1.322057	0.321414	-0.038807	0
0.076841	0.681912	-0.086018	0
1.134236	0.421007	-0.298591	0
0.089016	0.551034	0.094092	0
1.165411	0.397443	-0.027182	0
0.306658	0.482845	0.179164	0
0.201500	0.459464	0.433142	0
0.198571	0.575458	0.225032	0
-0.134258	0.603329	0.083750	0
1.318885	0.343116	0.037343	0
0.823045	0.510252	0.306615	0
1.347905	0.314746	-0.127709	0
0.776257	0.588006	0.212803	0
0.568095	0.496920	-0.016787	0
0.001819	0.556970	0.429107	0
0.469228	0.594600	-0.108342	0
0.997250	0.367172	-0.178291	0
0.587796	0.339178	0.177854	0
-0.189536	0.466408	-0.088930	0
0.360857	0.655743	-0.025224	0
0.656142	0.533652	-0.035079	0
0.942869	0.465918	-0.093413	0
0.486710	0.537291	-0.134632	0
0.954748	0.400151	0.064488	0
0.880185	0.378442	0.105370	0
0.231341	0.624207	-0.221212	0
0.494714	0.441035	0.336128	0
0.296053	0.389886	0.251642	0
0.036807	0.638870	0.146117	0
0.309958	0.704692	0.005106	0
-0.089839	0.500054	0.110799	0
0.292688	0.627030	-0.116646	0
0.353761	0.557701	-0.132481	0
1.087733	0.392113	-0.083002	0
0.849606	0.465435	-0.062932	0
0.450877	0.687432	0.147438	0
-0.129635	0.613920	0.421156	0
0.578227	0.494317	-0.020949	0
0.829958	0.392001	0.030618	0
0.689218	0.559176	-0.169167	0
1.215687	0.150561	-0.020946	0
0.030673	0.505674	0.025067	0
0.618144	0.507910	-0.072433	0
0.406575	0.658356	0.397947	0
1.211456	0.291965	0.177480	0
0.458366	0.447654	-0.043381	0
0.283148	0.555559	-0.032080	0
0.595615	0.561220	0.255237	0
1.027098	0.421175	0.013348	0
0.620608	0.512354	-0.321474	0
-0.257678	0.539776	-0.125032	0
0.266735	0.666245	-0.219107	0
0.143676	0.655714	-0.138414	0
0.791777	0.488987	-0.218685	0
-0.474239	0.609760	0.053885	0
1.026119	0.228860	-0.386829	0
-0.260246	0.672896	0.099983	0
-0.619816	0.497442	-0.127969	0
-0.028573	0.313474	0.083581	0
0.205324	0.748698	-0.038641	0
0.476453	0.544296	-0.014950	0
-0.242877	0.560250	-0.025010	0
0.858216	0.409205	-0.476036	0
0.249632	0.521059	0.122324	0
0.510655	0.448758	-0.302308	0
-0.000420	0.687578	0.033558	0
-0.217113	0.603979	-0.110194	0
0.713156	0.507850	-0.251402	0
-0.030404	0.507866	-0.110659	0
0.344375	0.339048	-0.332808	0
0.464609	0.648194	0.070043	0
0.423999	0.553011	0.274902	0
0.124536	0.382956	-0.262295	0
-0.069945	0.714396	0.059139	0
0.207071	0.666577	0.034627	0
0.293307	0.408494	-0.063859	0
0.199599	0.604075	0.006727	0
-0.077108	0.381565	-0.013302	0
-0.071903	0.414335	-0.281439	0
-0.167180	0.693141	0.138826	0
0.432973	0.568655	0.099675	0
-0.253223	0.565825	0.339705	0
0.403617	0.418177	0.039239	0
0.690709	0.294720	0.106996	0
-0.198362	0.583864	-0.111823	0
0.500254	0.642804	-0.081000	0
0.759879	0.378496	0.015181	0
-0.231804	0.701817	-0.139934	0
0.678852	0.406858	0.308771	0
0.099905	0.524474	-0.227653	0
-0.090336	0.340756	0.080949	0
-0.545263	0.643705	-0.303554	0
0.247132	0.527689	-0.055798	0
-0.426745	0.568755	0.166602	0
-0.345146	0.745295	0.066959	0
-0.129718	0.582944	0.311476	0
-0.329261	0.790079	-0.046619	0
0.259746	0.483402	-0.390650	0
-0.045714	0.715440	-0.412383	0
0.013251	0.725899	0.026722	0
0.028139	0.485114	-0.396454	0
0.469666	0.587063	-0.058161	0
0.033751	0.512226	0.021095	0
0.123160	0.702583	-0.097580	0
0.151706	0.734280	-0.107743	0
0.096909	0.612581	0.211205	0
-0.106165	0.548201	0.148453	0
-0.194497	0.747088	-0.182446	0
0.383530	0.321453	0.117474	0
-0.057669	0.554933	0.061486	0
0.013402	0.627451	-0.233493	0
0.499084	0.286411	-0.137820	0
0.372797	0.487866	-0.075631	0
0.549670	0.256443	0.117283	0
-0.230799	0.398754	-0.114230	0
-0.238364	0.726850	-0.092501	0
-0.018877	0.463563	-0.198131	0
0.038729	0.654665	-0.038971	0
0.371496	0.430660	0.003733	0
0.449555	0.601402	-0.076076	0
-0.063075	0.554907	-0.014532	0
-0.100530	0.635703	0.002448	0
-0.112522	0.470896	-0.012858	0
-0.046758	0.392315	-0.268173	0
0.572482	0.357469	-0.315583	0
0.235334	0.452808	-0.304620	0
0.129805	0.670428	-0.186669	0
0.034425	0.529640	-0.097262	0
0.204786	0.240493	0.196753	0
0.034908	0.285549	-0.246628	0
0.019379	0.407331	0.197418	0
0.516330	0.328555	-0.409480	0
-0.185966	0.663869	0.096374	0
0.119033	0.727253	0.058825	0
-0.207172	0.725741	0.321074	0
-0.212317	0.718132	0.083774	0
-0.015551	0.650412	0.056982	0
0.595067	0.244834	-0.265146	0
0.609063	0.130666	-0.067490	0
0.748032	0.186348	0.258259	0
0.370226	0.329144	0.115233	0
-0.327118	0.596065	0.024864	0
0.332415	0.419756	0.123950	0
0.743512	0.051229	-0.470970	0
0.242749	0.531395	-0.081237	0
0.389071	0.325751	0.008882	0
0.096159	0.310754	0.133850	0
-0.519296	0.841460	-0.215628	0
-0.168584	0.502676	-0.394354	0
-0.019303	0.503043	-0.021609	0
0.498179	0.364857	0.286399	0
0.111055	0.382689	0.262091	0
0.332432	0.238798	0.245041	0
-0.115649	0.208535	-0.245250	0
0.415658	0.219217	-0.204303	0
0.267784	0.359067	0.095079	0
-0.011590	0.621547	-0.229663	0
0.573722	0.162019	0.323916	0
0.123567	0.550253	-0.030354	0
0.492902	0.169545	-0.026161	0
0.462713	0.330220	-0.144925	0
-0.202156	0.596311	0.038727	0
0.031557	0.635931	0.099665	0
-0.185428	0.368521	-0.136204	0
0.193190	0.214476	0.059339	0
0.447077	0.293570	-0.406647	0
0.503987	0.254563	0.016371	0
0.383463	0.323975	0.141698	0
0.092984	0.583128	0.235336	0
-0.249645	0.519931	0.099037	0
0.148327	0.545584	-0.073047	0
-0.057997	0.593826	-0.078983	0
0.284715	0.612378	0.233395	0
-0.085035	0.378057	0.110494	0
0.214626	0.238234	0.169799	0
0.207654	0.329964	-0.414434	0
0.061031	0.371061	0.196841	0
-0.008677	0.368725	-0.147013	0
0.331254	0.270536	-0.245879	0
0.050362	0.419752	-0.168892	0
0.439000	0.187868	0.418100	0
0.198328	0.541763	0.037962	0
-0.129575	0.465070	-0.014643	0
0.466307	0.134426	0.064253	0
-0.119103	0.567226	0.010018	0
-0.105711	0.772245	-0.022080	0
0.408544	0.227864	0.018149	0
-0.180005	0.549021	-0.237768	0
-0.050980	0.469050	0.403477	0
0.078696	0.682374	-0.121100	0
0.209519	0.667617	0.023477	0
0.280334	0.402581	-0.122588	0
-0.092528	0.616316	-0.290863	0
-0.209362	0.439049	-0.122850	0
0.083220	0.485832	-0.053514	0
0.222600	0.273132	0.059082	0
0.353233	0.279878	0.015229	0
-0.103275	0.311616	0.148705	0
0.157736	0.636181	-0.067172	0
0.282922	0.399896	0.199953	0
-0.342252	0.554255	0.201241	0
